Rental - Car Type Api: October 25, 2017, 11:28 am
Response: Array
(
    [0] => Array
        (
            [car_type_id] => 27
            [car_type_name] => Taxi
            [car_type_image] => uploads/car/car_27.png
            [city_id] => 123
            [base_fare] => 90 Per 6 Miles
            [ride_mode] => 1
            [currency_iso_code] => AUD
            [currency_unicode] => 0024
        )

    [1] => Array
        (
            [car_type_id] => 001
            [car_type_name] => Rental
            [car_type_image] => uploads/car/editcar_2.png
            [city_id] => 123
            [distance] => 
            [base_fare] => 
            [ride_mode] => 2
        )

)

city_name: Gurugram
latitude: 28.412285432988263
longitude: 77.0434596017003
-------------------------
