Rental - Car Type Api: September 21, 2017, 12:49 pm
Response: Array
(
    [0] => Array
        (
            [car_type_id] => 2
            [car_type_name] => HATCHBACK
            [car_type_image] => uploads/car/editcar_2.png
            [city_id] => 56
            [base_fare] => 100 Per 4 Miles
            [ride_mode] => 1
            [currency_iso_code] => AUD
            [currency_unicode] => 0024
        )

    [1] => Array
        (
            [car_type_id] => 3
            [car_type_name] => LUXURY
            [car_type_image] => uploads/car/editcar_3.png
            [city_id] => 56
            [base_fare] => 100 Per 4 Miles
            [ride_mode] => 1
            [currency_iso_code] => AUD
            [currency_unicode] => 0024
        )

    [2] => Array
        (
            [car_type_id] => 4
            [car_type_name] => Mini
            [car_type_image] => uploads/car/editcar_4.png
            [city_id] => 56
            [base_fare] => 178 Per 4 Miles
            [ride_mode] => 1
            [currency_iso_code] => AUD
            [currency_unicode] => 0024
        )

)

city_name: Gurugram
latitude: 28.41218546490328
longitude: 77.04312231391668
-------------------------
Rental - Car Type Api: September 21, 2017, 3:11 pm
Response: Array
(
    [0] => Array
        (
            [car_type_id] => 2
            [car_type_name] => HATCHBACK
            [car_type_image] => uploads/car/editcar_2.png
            [city_id] => 56
            [base_fare] => 100 Per 4 Miles
            [ride_mode] => 1
            [currency_iso_code] => AUD
            [currency_unicode] => 0024
        )

    [1] => Array
        (
            [car_type_id] => 3
            [car_type_name] => LUXURY
            [car_type_image] => uploads/car/editcar_3.png
            [city_id] => 56
            [base_fare] => 100 Per 4 Miles
            [ride_mode] => 1
            [currency_iso_code] => AUD
            [currency_unicode] => 0024
        )

    [2] => Array
        (
            [car_type_id] => 4
            [car_type_name] => Mini
            [car_type_image] => uploads/car/editcar_4.png
            [city_id] => 56
            [base_fare] => 178 Per 4 Miles
            [ride_mode] => 1
            [currency_iso_code] => AUD
            [currency_unicode] => 0024
        )

)

city_name: Gurugram
latitude: 28.412204337941315
longitude: 77.04324703663588
-------------------------
Rental - Car Type Api: September 21, 2017, 3:23 pm
Response: Array
(
    [0] => Array
        (
            [car_type_id] => 2
            [car_type_name] => HATCHBACK
            [car_type_image] => uploads/car/editcar_2.png
            [city_id] => 56
            [base_fare] => 100 Per 4 Miles
            [ride_mode] => 1
            [currency_iso_code] => AUD
            [currency_unicode] => 0024
        )

    [1] => Array
        (
            [car_type_id] => 3
            [car_type_name] => LUXURY
            [car_type_image] => uploads/car/editcar_3.png
            [city_id] => 56
            [base_fare] => 100 Per 4 Miles
            [ride_mode] => 1
            [currency_iso_code] => AUD
            [currency_unicode] => 0024
        )

    [2] => Array
        (
            [car_type_id] => 4
            [car_type_name] => Mini
            [car_type_image] => uploads/car/editcar_4.png
            [city_id] => 56
            [base_fare] => 178 Per 4 Miles
            [ride_mode] => 1
            [currency_iso_code] => AUD
            [currency_unicode] => 0024
        )

)

city_name: Gurugram
latitude: 28.412207876635563
longitude: 77.04324804246426
-------------------------
Rental - Car Type Api: September 21, 2017, 3:25 pm
Response: Array
(
    [0] => Array
        (
            [car_type_id] => 2
            [car_type_name] => HATCHBACK
            [car_type_image] => uploads/car/editcar_2.png
            [city_id] => 56
            [base_fare] => 100 Per 4 Miles
            [ride_mode] => 1
            [currency_iso_code] => AUD
            [currency_unicode] => 0024
        )

    [1] => Array
        (
            [car_type_id] => 3
            [car_type_name] => LUXURY
            [car_type_image] => uploads/car/editcar_3.png
            [city_id] => 56
            [base_fare] => 100 Per 4 Miles
            [ride_mode] => 1
            [currency_iso_code] => AUD
            [currency_unicode] => 0024
        )

    [2] => Array
        (
            [car_type_id] => 4
            [car_type_name] => Mini
            [car_type_image] => uploads/car/editcar_4.png
            [city_id] => 56
            [base_fare] => 178 Per 4 Miles
            [ride_mode] => 1
            [currency_iso_code] => AUD
            [currency_unicode] => 0024
        )

)

city_name: Gurugram
latitude: 28.41220315837653
longitude: 77.04325541853905
-------------------------
Rental - Car Type Api: September 21, 2017, 3:29 pm
Response: Array
(
    [0] => Array
        (
            [car_type_id] => 2
            [car_type_name] => HATCHBACK
            [car_type_image] => uploads/car/editcar_2.png
            [city_id] => 56
            [base_fare] => 100 Per 4 Miles
            [ride_mode] => 1
            [currency_iso_code] => AUD
            [currency_unicode] => 0024
        )

    [1] => Array
        (
            [car_type_id] => 3
            [car_type_name] => LUXURY
            [car_type_image] => uploads/car/editcar_3.png
            [city_id] => 56
            [base_fare] => 100 Per 4 Miles
            [ride_mode] => 1
            [currency_iso_code] => AUD
            [currency_unicode] => 0024
        )

    [2] => Array
        (
            [car_type_id] => 4
            [car_type_name] => Mini
            [car_type_image] => uploads/car/editcar_4.png
            [city_id] => 56
            [base_fare] => 178 Per 4 Miles
            [ride_mode] => 1
            [currency_iso_code] => AUD
            [currency_unicode] => 0024
        )

)

city_name: Gurugram
latitude: 28.412202568594143
longitude: 77.04325709491968
-------------------------
Rental - Car Type Api: September 21, 2017, 3:31 pm
Response: Array
(
    [0] => Array
        (
            [car_type_id] => 2
            [car_type_name] => HATCHBACK
            [car_type_image] => uploads/car/editcar_2.png
            [city_id] => 56
            [base_fare] => 100 Per 4 Miles
            [ride_mode] => 1
            [currency_iso_code] => AUD
            [currency_unicode] => 0024
        )

    [1] => Array
        (
            [car_type_id] => 3
            [car_type_name] => LUXURY
            [car_type_image] => uploads/car/editcar_3.png
            [city_id] => 56
            [base_fare] => 100 Per 4 Miles
            [ride_mode] => 1
            [currency_iso_code] => AUD
            [currency_unicode] => 0024
        )

    [2] => Array
        (
            [car_type_id] => 4
            [car_type_name] => Mini
            [car_type_image] => uploads/car/editcar_4.png
            [city_id] => 56
            [base_fare] => 178 Per 4 Miles
            [ride_mode] => 1
            [currency_iso_code] => AUD
            [currency_unicode] => 0024
        )

)

city_name: Gurugram
latitude: 28.412202863485327
longitude: 77.04325675964355
-------------------------
Rental - Car Type Api: September 21, 2017, 3:33 pm
Response: Array
(
    [0] => Array
        (
            [car_type_id] => 2
            [car_type_name] => HATCHBACK
            [car_type_image] => uploads/car/editcar_2.png
            [city_id] => 56
            [base_fare] => 100 Per 4 Miles
            [ride_mode] => 1
            [currency_iso_code] => AUD
            [currency_unicode] => 0024
        )

    [1] => Array
        (
            [car_type_id] => 3
            [car_type_name] => LUXURY
            [car_type_image] => uploads/car/editcar_3.png
            [city_id] => 56
            [base_fare] => 100 Per 4 Miles
            [ride_mode] => 1
            [currency_iso_code] => AUD
            [currency_unicode] => 0024
        )

    [2] => Array
        (
            [car_type_id] => 4
            [car_type_name] => Mini
            [car_type_image] => uploads/car/editcar_4.png
            [city_id] => 56
            [base_fare] => 178 Per 4 Miles
            [ride_mode] => 1
            [currency_iso_code] => AUD
            [currency_unicode] => 0024
        )

)

city_name: Gurugram
latitude: 28.412204043050107
longitude: 77.04325541853905
-------------------------
Rental - Car Type Api: September 21, 2017, 3:35 pm
Response: Array
(
    [0] => Array
        (
            [car_type_id] => 2
            [car_type_name] => HATCHBACK
            [car_type_image] => uploads/car/editcar_2.png
            [city_id] => 56
            [base_fare] => 100 Per 4 Miles
            [ride_mode] => 1
            [currency_iso_code] => AUD
            [currency_unicode] => 0024
        )

    [1] => Array
        (
            [car_type_id] => 3
            [car_type_name] => LUXURY
            [car_type_image] => uploads/car/editcar_3.png
            [city_id] => 56
            [base_fare] => 100 Per 4 Miles
            [ride_mode] => 1
            [currency_iso_code] => AUD
            [currency_unicode] => 0024
        )

    [2] => Array
        (
            [car_type_id] => 4
            [car_type_name] => Mini
            [car_type_image] => uploads/car/editcar_4.png
            [city_id] => 56
            [base_fare] => 178 Per 4 Miles
            [ride_mode] => 1
            [currency_iso_code] => AUD
            [currency_unicode] => 0024
        )

)

city_name: Gurugram
latitude: 28.41220669707083
longitude: 77.04325173050165
-------------------------
Rental - Car Type Api: September 21, 2017, 4:03 pm
Response: Array
(
    [0] => Array
        (
            [car_type_id] => 27
            [car_type_name] => Taxi
            [car_type_image] => uploads/car/car_27.png
            [city_id] => 56
            [base_fare] => 100 Per 100 Miles
            [ride_mode] => 1
            [currency_iso_code] => AUD
            [currency_unicode] => 0024
        )

)

city_name: Gurugram
latitude: 28.412202568594143
longitude: 77.04325944185257
-------------------------
Rental - Car Type Api: September 21, 2017, 4:06 pm
Response: Array
(
    [0] => Array
        (
            [car_type_id] => 27
            [car_type_name] => Taxi
            [car_type_image] => uploads/car/car_27.png
            [city_id] => 56
            [base_fare] => 100 Per 100 Miles
            [ride_mode] => 1
            [currency_iso_code] => AUD
            [currency_unicode] => 0024
        )

    [1] => Array
        (
            [car_type_id] => 28
            [car_type_name] => Ambulance
            [car_type_image] => uploads/car/car_28.png
            [city_id] => 56
            [base_fare] => 10 Per 20 Miles
            [ride_mode] => 1
            [currency_iso_code] => AUD
            [currency_unicode] => 0024
        )

    [2] => Array
        (
            [car_type_id] => 29
            [car_type_name] => Boda Boda
            [car_type_image] => uploads/car/car_29.png
            [city_id] => 56
            [base_fare] => 13 Per 12 Miles
            [ride_mode] => 1
            [currency_iso_code] => AUD
            [currency_unicode] => 0024
        )

    [3] => Array
        (
            [car_type_id] => 30
            [car_type_name] => Towing
            [car_type_image] => uploads/car/car_30.png
            [city_id] => 56
            [base_fare] => 13 Per 13 Miles
            [ride_mode] => 1
            [currency_iso_code] => AUD
            [currency_unicode] => 0024
        )

)

city_name: Gurugram
latitude: 28.412204337941315
longitude: 77.04325709491968
-------------------------
Rental - Car Type Api: September 21, 2017, 4:13 pm
Response: Array
(
    [0] => Array
        (
            [car_type_id] => 27
            [car_type_name] => Taxi
            [car_type_image] => uploads/car/car_27.png
            [city_id] => 56
            [base_fare] => 100 Per 100 Miles
            [ride_mode] => 1
            [currency_iso_code] => AUD
            [currency_unicode] => 0024
        )

    [1] => Array
        (
            [car_type_id] => 28
            [car_type_name] => Ambulance
            [car_type_image] => uploads/car/car_28.png
            [city_id] => 56
            [base_fare] => 10 Per 20 Miles
            [ride_mode] => 1
            [currency_iso_code] => AUD
            [currency_unicode] => 0024
        )

    [2] => Array
        (
            [car_type_id] => 29
            [car_type_name] => Boda Boda
            [car_type_image] => uploads/car/car_29.png
            [city_id] => 56
            [base_fare] => 13 Per 12 Miles
            [ride_mode] => 1
            [currency_iso_code] => AUD
            [currency_unicode] => 0024
        )

    [3] => Array
        (
            [car_type_id] => 30
            [car_type_name] => Towing
            [car_type_image] => uploads/car/car_30.png
            [city_id] => 56
            [base_fare] => 13 Per 13 Miles
            [ride_mode] => 1
            [currency_iso_code] => AUD
            [currency_unicode] => 0024
        )

)

city_name: Gurugram
latitude: 28.41220994087382
longitude: 77.04324938356876
-------------------------
Rental - Car Type Api: September 21, 2017, 4:15 pm
Response: Array
(
    [0] => Array
        (
            [car_type_id] => 27
            [car_type_name] => Taxi
            [car_type_image] => uploads/car/car_27.png
            [city_id] => 56
            [base_fare] => 100 Per 100 Miles
            [ride_mode] => 1
            [currency_iso_code] => AUD
            [currency_unicode] => 0024
        )

    [1] => Array
        (
            [car_type_id] => 28
            [car_type_name] => Ambulance
            [car_type_image] => uploads/car/car_28.png
            [city_id] => 56
            [base_fare] => 10 Per 20 Miles
            [ride_mode] => 1
            [currency_iso_code] => AUD
            [currency_unicode] => 0024
        )

    [2] => Array
        (
            [car_type_id] => 29
            [car_type_name] => Boda Boda
            [car_type_image] => uploads/car/car_29.png
            [city_id] => 56
            [base_fare] => 13 Per 12 Miles
            [ride_mode] => 1
            [currency_iso_code] => AUD
            [currency_unicode] => 0024
        )

    [3] => Array
        (
            [car_type_id] => 30
            [car_type_name] => Towing
            [car_type_image] => uploads/car/car_30.png
            [city_id] => 56
            [base_fare] => 13 Per 13 Miles
            [ride_mode] => 1
            [currency_iso_code] => AUD
            [currency_unicode] => 0024
        )

)

city_name: Gurugram
latitude: 28.412213774459047
longitude: 77.04324301332235
-------------------------
Rental - Car Type Api: September 21, 2017, 4:54 pm
Response: Array
(
    [0] => Array
        (
            [car_type_id] => 27
            [car_type_name] => Taxi
            [car_type_image] => uploads/car/car_27.png
            [city_id] => 56
            [base_fare] => 100 Per 100 Miles
            [ride_mode] => 1
            [currency_iso_code] => AUD
            [currency_unicode] => 0024
        )

    [1] => Array
        (
            [car_type_id] => 28
            [car_type_name] => Ambulance
            [car_type_image] => uploads/car/car_28.png
            [city_id] => 56
            [base_fare] => 10 Per 20 Miles
            [ride_mode] => 1
            [currency_iso_code] => AUD
            [currency_unicode] => 0024
        )

    [2] => Array
        (
            [car_type_id] => 29
            [car_type_name] => Boda Boda
            [car_type_image] => uploads/car/car_29.png
            [city_id] => 56
            [base_fare] => 13 Per 12 Miles
            [ride_mode] => 1
            [currency_iso_code] => AUD
            [currency_unicode] => 0024
        )

    [3] => Array
        (
            [car_type_id] => 30
            [car_type_name] => Towing
            [car_type_image] => uploads/car/car_30.png
            [city_id] => 56
            [base_fare] => 13 Per 13 Miles
            [ride_mode] => 1
            [currency_iso_code] => AUD
            [currency_unicode] => 0024
        )

)

city_name: Gurugram
latitude: 28.41220610728844
longitude: 77.04325575381517
-------------------------
Rental - Car Type Api: September 21, 2017, 4:58 pm
Response: Array
(
    [0] => Array
        (
            [car_type_id] => 27
            [car_type_name] => Taxi
            [car_type_image] => uploads/car/car_27.png
            [city_id] => 56
            [base_fare] => 100 Per 100 Miles
            [ride_mode] => 1
            [currency_iso_code] => AUD
            [currency_unicode] => 0024
        )

    [1] => Array
        (
            [car_type_id] => 28
            [car_type_name] => Ambulance
            [car_type_image] => uploads/car/car_28.png
            [city_id] => 56
            [base_fare] => 10 Per 20 Miles
            [ride_mode] => 1
            [currency_iso_code] => AUD
            [currency_unicode] => 0024
        )

    [2] => Array
        (
            [car_type_id] => 29
            [car_type_name] => Boda Boda
            [car_type_image] => uploads/car/car_29.png
            [city_id] => 56
            [base_fare] => 13 Per 12 Miles
            [ride_mode] => 1
            [currency_iso_code] => AUD
            [currency_unicode] => 0024
        )

    [3] => Array
        (
            [car_type_id] => 30
            [car_type_name] => Towing
            [car_type_image] => uploads/car/car_30.png
            [city_id] => 56
            [base_fare] => 13 Per 13 Miles
            [ride_mode] => 1
            [currency_iso_code] => AUD
            [currency_unicode] => 0024
        )

)

city_name: Gurugram
latitude: 28.41221878760878
longitude: 77.04323463141918
-------------------------
Rental - Car Type Api: September 21, 2017, 5:02 pm
Response: Array
(
    [0] => Array
        (
            [car_type_id] => 27
            [car_type_name] => Taxi
            [car_type_image] => uploads/car/car_27.png
            [city_id] => 56
            [base_fare] => 100 Per 100 Miles
            [ride_mode] => 1
            [currency_iso_code] => AUD
            [currency_unicode] => 0024
        )

    [1] => Array
        (
            [car_type_id] => 28
            [car_type_name] => Ambulance
            [car_type_image] => uploads/car/car_28.png
            [city_id] => 56
            [base_fare] => 10 Per 20 Miles
            [ride_mode] => 1
            [currency_iso_code] => AUD
            [currency_unicode] => 0024
        )

    [2] => Array
        (
            [car_type_id] => 29
            [car_type_name] => Boda Boda
            [car_type_image] => uploads/car/car_29.png
            [city_id] => 56
            [base_fare] => 13 Per 12 Miles
            [ride_mode] => 1
            [currency_iso_code] => AUD
            [currency_unicode] => 0024
        )

    [3] => Array
        (
            [car_type_id] => 30
            [car_type_name] => Towing
            [car_type_image] => uploads/car/car_30.png
            [city_id] => 56
            [base_fare] => 13 Per 13 Miles
            [ride_mode] => 1
            [currency_iso_code] => AUD
            [currency_unicode] => 0024
        )

)

city_name: Gurugram
latitude: 28.41221878760878
longitude: 77.04323463141918
-------------------------
Rental - Car Type Api: September 21, 2017, 5:06 pm
Response: Array
(
    [0] => Array
        (
            [car_type_id] => 27
            [car_type_name] => Taxi
            [car_type_image] => uploads/car/car_27.png
            [city_id] => 56
            [base_fare] => 100 Per 100 Miles
            [ride_mode] => 1
            [currency_iso_code] => AUD
            [currency_unicode] => 0024
        )

    [1] => Array
        (
            [car_type_id] => 28
            [car_type_name] => Ambulance
            [car_type_image] => uploads/car/car_28.png
            [city_id] => 56
            [base_fare] => 10 Per 20 Miles
            [ride_mode] => 1
            [currency_iso_code] => AUD
            [currency_unicode] => 0024
        )

    [2] => Array
        (
            [car_type_id] => 29
            [car_type_name] => Boda Boda
            [car_type_image] => uploads/car/car_29.png
            [city_id] => 56
            [base_fare] => 13 Per 12 Miles
            [ride_mode] => 1
            [currency_iso_code] => AUD
            [currency_unicode] => 0024
        )

    [3] => Array
        (
            [car_type_id] => 30
            [car_type_name] => Towing
            [car_type_image] => uploads/car/car_30.png
            [city_id] => 56
            [base_fare] => 13 Per 13 Miles
            [ride_mode] => 1
            [currency_iso_code] => AUD
            [currency_unicode] => 0024
        )

)

city_name: Gurugram
latitude: 28.41221878760878
longitude: 77.04323463141918
-------------------------
Rental - Car Type Api: September 21, 2017, 5:17 pm
Response: Array
(
    [0] => Array
        (
            [car_type_id] => 27
            [car_type_name] => Taxi
            [car_type_image] => uploads/car/car_27.png
            [city_id] => 56
            [base_fare] => 100 Per 100 Miles
            [ride_mode] => 1
            [currency_iso_code] => AUD
            [currency_unicode] => 0024
        )

    [1] => Array
        (
            [car_type_id] => 28
            [car_type_name] => Ambulance
            [car_type_image] => uploads/car/car_28.png
            [city_id] => 56
            [base_fare] => 10 Per 20 Miles
            [ride_mode] => 1
            [currency_iso_code] => AUD
            [currency_unicode] => 0024
        )

    [2] => Array
        (
            [car_type_id] => 29
            [car_type_name] => Boda Boda
            [car_type_image] => uploads/car/car_29.png
            [city_id] => 56
            [base_fare] => 13 Per 12 Miles
            [ride_mode] => 1
            [currency_iso_code] => AUD
            [currency_unicode] => 0024
        )

    [3] => Array
        (
            [car_type_id] => 30
            [car_type_name] => Towing
            [car_type_image] => uploads/car/car_30.png
            [city_id] => 56
            [base_fare] => 13 Per 13 Miles
            [ride_mode] => 1
            [currency_iso_code] => AUD
            [currency_unicode] => 0024
        )

)

city_name: Gurugram
latitude: 28.41221878760878
longitude: 77.04323463141918
-------------------------
Rental - Car Type Api: September 21, 2017, 5:24 pm
Response: Array
(
    [0] => Array
        (
            [car_type_id] => 27
            [car_type_name] => Taxi
            [car_type_image] => uploads/car/car_27.png
            [city_id] => 56
            [base_fare] => 100 Per 100 Miles
            [ride_mode] => 1
            [currency_iso_code] => AUD
            [currency_unicode] => 0024
        )

    [1] => Array
        (
            [car_type_id] => 28
            [car_type_name] => Ambulance
            [car_type_image] => uploads/car/car_28.png
            [city_id] => 56
            [base_fare] => 10 Per 20 Miles
            [ride_mode] => 1
            [currency_iso_code] => AUD
            [currency_unicode] => 0024
        )

    [2] => Array
        (
            [car_type_id] => 29
            [car_type_name] => Boda Boda
            [car_type_image] => uploads/car/car_29.png
            [city_id] => 56
            [base_fare] => 13 Per 12 Miles
            [ride_mode] => 1
            [currency_iso_code] => AUD
            [currency_unicode] => 0024
        )

    [3] => Array
        (
            [car_type_id] => 30
            [car_type_name] => Towing
            [car_type_image] => uploads/car/car_30.png
            [city_id] => 56
            [base_fare] => 13 Per 13 Miles
            [ride_mode] => 1
            [currency_iso_code] => AUD
            [currency_unicode] => 0024
        )

)

city_name: Gurugram
latitude: 28.4122072868532
longitude: 77.04325340688229
-------------------------
Rental - Car Type Api: September 21, 2017, 5:34 pm
Response: Array
(
    [0] => Array
        (
            [car_type_id] => 27
            [car_type_name] => Taxi
            [car_type_image] => uploads/car/car_27.png
            [city_id] => 56
            [base_fare] => 100 Per 100 Miles
            [ride_mode] => 1
            [currency_iso_code] => AUD
            [currency_unicode] => 0024
        )

    [1] => Array
        (
            [car_type_id] => 28
            [car_type_name] => Ambulance
            [car_type_image] => uploads/car/car_28.png
            [city_id] => 56
            [base_fare] => 10 Per 20 Miles
            [ride_mode] => 1
            [currency_iso_code] => AUD
            [currency_unicode] => 0024
        )

    [2] => Array
        (
            [car_type_id] => 29
            [car_type_name] => Boda Boda
            [car_type_image] => uploads/car/car_29.png
            [city_id] => 56
            [base_fare] => 13 Per 12 Miles
            [ride_mode] => 1
            [currency_iso_code] => AUD
            [currency_unicode] => 0024
        )

    [3] => Array
        (
            [car_type_id] => 30
            [car_type_name] => Towing
            [car_type_image] => uploads/car/car_30.png
            [city_id] => 56
            [base_fare] => 13 Per 13 Miles
            [ride_mode] => 1
            [currency_iso_code] => AUD
            [currency_unicode] => 0024
        )

)

city_name: Gurugram
latitude: 28.412214954023703
longitude: 77.04323865473269
-------------------------
Rental - Car Type Api: September 21, 2017, 5:58 pm
Response: Array
(
    [0] => Array
        (
            [car_type_id] => 27
            [car_type_name] => Taxi
            [car_type_image] => uploads/car/car_27.png
            [city_id] => 56
            [base_fare] => 100 Per 100 Miles
            [ride_mode] => 1
            [currency_iso_code] => AUD
            [currency_unicode] => 0024
        )

    [1] => Array
        (
            [car_type_id] => 28
            [car_type_name] => Ambulance
            [car_type_image] => uploads/car/car_28.png
            [city_id] => 56
            [base_fare] => 10 Per 20 Miles
            [ride_mode] => 1
            [currency_iso_code] => AUD
            [currency_unicode] => 0024
        )

    [2] => Array
        (
            [car_type_id] => 29
            [car_type_name] => Boda Boda
            [car_type_image] => uploads/car/car_29.png
            [city_id] => 56
            [base_fare] => 13 Per 12 Miles
            [ride_mode] => 1
            [currency_iso_code] => AUD
            [currency_unicode] => 0024
        )

    [3] => Array
        (
            [car_type_id] => 30
            [car_type_name] => Towing
            [car_type_image] => uploads/car/car_30.png
            [city_id] => 56
            [base_fare] => 13 Per 13 Miles
            [ride_mode] => 1
            [currency_iso_code] => AUD
            [currency_unicode] => 0024
        )

)

city_name: Gurugram
latitude: 28.4121379804326
longitude: 77.0432944110013
-------------------------
Rental - Car Type Api: September 21, 2017, 6:12 pm
Response: Array
(
    [0] => Array
        (
            [car_type_id] => 27
            [car_type_name] => Taxi
            [car_type_image] => uploads/car/car_27.png
            [city_id] => 56
            [base_fare] => 100 Per 100 Miles
            [ride_mode] => 1
            [currency_iso_code] => AUD
            [currency_unicode] => 0024
        )

    [1] => Array
        (
            [car_type_id] => 28
            [car_type_name] => Ambulance
            [car_type_image] => uploads/car/car_28.png
            [city_id] => 56
            [base_fare] => 10 Per 20 Miles
            [ride_mode] => 1
            [currency_iso_code] => AUD
            [currency_unicode] => 0024
        )

    [2] => Array
        (
            [car_type_id] => 29
            [car_type_name] => Boda Boda
            [car_type_image] => uploads/car/car_29.png
            [city_id] => 56
            [base_fare] => 13 Per 12 Miles
            [ride_mode] => 1
            [currency_iso_code] => AUD
            [currency_unicode] => 0024
        )

    [3] => Array
        (
            [car_type_id] => 30
            [car_type_name] => Towing
            [car_type_image] => uploads/car/car_30.png
            [city_id] => 56
            [base_fare] => 13 Per 13 Miles
            [ride_mode] => 1
            [currency_iso_code] => AUD
            [currency_unicode] => 0024
        )

)

city_name: Gurugram
latitude: 28.4121847293816
longitude: 77.0431886319461
-------------------------
Rental - Car Type Api: September 21, 2017, 6:14 pm
Response: Array
(
    [0] => Array
        (
            [car_type_id] => 27
            [car_type_name] => Taxi
            [car_type_image] => uploads/car/car_27.png
            [city_id] => 56
            [base_fare] => 100 Per 100 Miles
            [ride_mode] => 1
            [currency_iso_code] => AUD
            [currency_unicode] => 0024
        )

    [1] => Array
        (
            [car_type_id] => 28
            [car_type_name] => Ambulance
            [car_type_image] => uploads/car/car_28.png
            [city_id] => 56
            [base_fare] => 10 Per 20 Miles
            [ride_mode] => 1
            [currency_iso_code] => AUD
            [currency_unicode] => 0024
        )

    [2] => Array
        (
            [car_type_id] => 29
            [car_type_name] => Boda Boda
            [car_type_image] => uploads/car/car_29.png
            [city_id] => 56
            [base_fare] => 13 Per 12 Miles
            [ride_mode] => 1
            [currency_iso_code] => AUD
            [currency_unicode] => 0024
        )

    [3] => Array
        (
            [car_type_id] => 30
            [car_type_name] => Towing
            [car_type_image] => uploads/car/car_30.png
            [city_id] => 56
            [base_fare] => 13 Per 13 Miles
            [ride_mode] => 1
            [currency_iso_code] => AUD
            [currency_unicode] => 0024
        )

)

city_name: Gurugram
latitude: 28.4120282257669
longitude: 77.0431817804442
-------------------------
Rental - Car Type Api: September 21, 2017, 6:19 pm
Response: Array
(
    [0] => Array
        (
            [car_type_id] => 27
            [car_type_name] => Taxi
            [car_type_image] => uploads/car/car_27.png
            [city_id] => 56
            [base_fare] => 100 Per 100 Miles
            [ride_mode] => 1
            [currency_iso_code] => AUD
            [currency_unicode] => 0024
        )

    [1] => Array
        (
            [car_type_id] => 28
            [car_type_name] => Ambulance
            [car_type_image] => uploads/car/car_28.png
            [city_id] => 56
            [base_fare] => 10 Per 20 Miles
            [ride_mode] => 1
            [currency_iso_code] => AUD
            [currency_unicode] => 0024
        )

    [2] => Array
        (
            [car_type_id] => 29
            [car_type_name] => Boda Boda
            [car_type_image] => uploads/car/car_29.png
            [city_id] => 56
            [base_fare] => 13 Per 12 Miles
            [ride_mode] => 1
            [currency_iso_code] => AUD
            [currency_unicode] => 0024
        )

    [3] => Array
        (
            [car_type_id] => 30
            [car_type_name] => Towing
            [car_type_image] => uploads/car/car_30.png
            [city_id] => 56
            [base_fare] => 13 Per 13 Miles
            [ride_mode] => 1
            [currency_iso_code] => AUD
            [currency_unicode] => 0024
        )

)

city_name: Gurugram
latitude: 28.412214954023703
longitude: 77.04323865473269
-------------------------
Rental - Car Type Api: September 21, 2017, 6:26 pm
Response: Array
(
    [0] => Array
        (
            [car_type_id] => 27
            [car_type_name] => Taxi
            [car_type_image] => uploads/car/car_27.png
            [city_id] => 56
            [base_fare] => 100 Per 100 Miles
            [ride_mode] => 1
            [currency_iso_code] => AUD
            [currency_unicode] => 0024
        )

    [1] => Array
        (
            [car_type_id] => 28
            [car_type_name] => Ambulance
            [car_type_image] => uploads/car/car_28.png
            [city_id] => 56
            [base_fare] => 10 Per 20 Miles
            [ride_mode] => 1
            [currency_iso_code] => AUD
            [currency_unicode] => 0024
        )

    [2] => Array
        (
            [car_type_id] => 29
            [car_type_name] => Boda Boda
            [car_type_image] => uploads/car/car_29.png
            [city_id] => 56
            [base_fare] => 13 Per 12 Miles
            [ride_mode] => 1
            [currency_iso_code] => AUD
            [currency_unicode] => 0024
        )

    [3] => Array
        (
            [car_type_id] => 30
            [car_type_name] => Towing
            [car_type_image] => uploads/car/car_30.png
            [city_id] => 56
            [base_fare] => 13 Per 13 Miles
            [ride_mode] => 1
            [currency_iso_code] => AUD
            [currency_unicode] => 0024
        )

)

city_name: Gurugram
latitude: 28.41221878760878
longitude: 77.0432349666953
-------------------------
Rental - Car Type Api: September 21, 2017, 6:31 pm
Response: Array
(
    [0] => Array
        (
            [car_type_id] => 27
            [car_type_name] => Taxi
            [car_type_image] => uploads/car/car_27.png
            [city_id] => 56
            [base_fare] => 100 Per 100 Miles
            [ride_mode] => 1
            [currency_iso_code] => AUD
            [currency_unicode] => 0024
        )

    [1] => Array
        (
            [car_type_id] => 28
            [car_type_name] => Ambulance
            [car_type_image] => uploads/car/car_28.png
            [city_id] => 56
            [base_fare] => 10 Per 20 Miles
            [ride_mode] => 1
            [currency_iso_code] => AUD
            [currency_unicode] => 0024
        )

    [2] => Array
        (
            [car_type_id] => 29
            [car_type_name] => Boda Boda
            [car_type_image] => uploads/car/car_29.png
            [city_id] => 56
            [base_fare] => 13 Per 12 Miles
            [ride_mode] => 1
            [currency_iso_code] => AUD
            [currency_unicode] => 0024
        )

    [3] => Array
        (
            [car_type_id] => 30
            [car_type_name] => Towing
            [car_type_image] => uploads/car/car_30.png
            [city_id] => 56
            [base_fare] => 13 Per 13 Miles
            [ride_mode] => 1
            [currency_iso_code] => AUD
            [currency_unicode] => 0024
        )

)

city_name: Gurugram
latitude: 28.412204043050107
longitude: 77.04325944185257
-------------------------
Rental - Car Type Api: September 21, 2017, 6:40 pm
Response: Array
(
    [0] => Array
        (
            [car_type_id] => 27
            [car_type_name] => Taxi
            [car_type_image] => uploads/car/car_27.png
            [city_id] => 56
            [base_fare] => 100 Per 100 Miles
            [ride_mode] => 1
            [currency_iso_code] => AUD
            [currency_unicode] => 0024
        )

    [1] => Array
        (
            [car_type_id] => 28
            [car_type_name] => Ambulance
            [car_type_image] => uploads/car/car_28.png
            [city_id] => 56
            [base_fare] => 10 Per 20 Miles
            [ride_mode] => 1
            [currency_iso_code] => AUD
            [currency_unicode] => 0024
        )

    [2] => Array
        (
            [car_type_id] => 29
            [car_type_name] => Boda Boda
            [car_type_image] => uploads/car/car_29.png
            [city_id] => 56
            [base_fare] => 13 Per 12 Miles
            [ride_mode] => 1
            [currency_iso_code] => AUD
            [currency_unicode] => 0024
        )

    [3] => Array
        (
            [car_type_id] => 30
            [car_type_name] => Towing
            [car_type_image] => uploads/car/car_30.png
            [city_id] => 56
            [base_fare] => 13 Per 13 Miles
            [ride_mode] => 1
            [currency_iso_code] => AUD
            [currency_unicode] => 0024
        )

)

city_name: Gurugram
latitude: 28.4121898246735
longitude: 77.0432133065658
-------------------------
Rental - Car Type Api: September 21, 2017, 6:48 pm
Response: Array
(
    [0] => Array
        (
            [car_type_id] => 27
            [car_type_name] => Taxi
            [car_type_image] => uploads/car/car_27.png
            [city_id] => 56
            [base_fare] => 100 Per 100 Miles
            [ride_mode] => 1
            [currency_iso_code] => AUD
            [currency_unicode] => 0024
        )

    [1] => Array
        (
            [car_type_id] => 28
            [car_type_name] => Ambulance
            [car_type_image] => uploads/car/car_28.png
            [city_id] => 56
            [base_fare] => 10 Per 20 Miles
            [ride_mode] => 1
            [currency_iso_code] => AUD
            [currency_unicode] => 0024
        )

    [2] => Array
        (
            [car_type_id] => 29
            [car_type_name] => Boda Boda
            [car_type_image] => uploads/car/car_29.png
            [city_id] => 56
            [base_fare] => 13 Per 12 Miles
            [ride_mode] => 1
            [currency_iso_code] => AUD
            [currency_unicode] => 0024
        )

    [3] => Array
        (
            [car_type_id] => 30
            [car_type_name] => Towing
            [car_type_image] => uploads/car/car_30.png
            [city_id] => 56
            [base_fare] => 13 Per 13 Miles
            [ride_mode] => 1
            [currency_iso_code] => AUD
            [currency_unicode] => 0024
        )

)

city_name: Gurugram
latitude: 28.4122457983729
longitude: 77.0432395022425
-------------------------
Rental - Car Type Api: September 21, 2017, 6:59 pm
Response: Array
(
    [0] => Array
        (
            [car_type_id] => 27
            [car_type_name] => Taxi
            [car_type_image] => uploads/car/car_27.png
            [city_id] => 56
            [base_fare] => 100 Per 100 Miles
            [ride_mode] => 1
            [currency_iso_code] => AUD
            [currency_unicode] => 0024
        )

    [1] => Array
        (
            [car_type_id] => 28
            [car_type_name] => Ambulance
            [car_type_image] => uploads/car/car_28.png
            [city_id] => 56
            [base_fare] => 10 Per 20 Miles
            [ride_mode] => 1
            [currency_iso_code] => AUD
            [currency_unicode] => 0024
        )

    [2] => Array
        (
            [car_type_id] => 29
            [car_type_name] => Boda Boda
            [car_type_image] => uploads/car/car_29.png
            [city_id] => 56
            [base_fare] => 13 Per 12 Miles
            [ride_mode] => 1
            [currency_iso_code] => AUD
            [currency_unicode] => 0024
        )

    [3] => Array
        (
            [car_type_id] => 30
            [car_type_name] => Towing
            [car_type_image] => uploads/car/car_30.png
            [city_id] => 56
            [base_fare] => 13 Per 13 Miles
            [ride_mode] => 1
            [currency_iso_code] => AUD
            [currency_unicode] => 0024
        )

)

city_name: Gurugram
latitude: 28.4120553547634
longitude: 77.0432584229166
-------------------------
Rental - Car Type Api: September 21, 2017, 7:00 pm
Response: Array
(
    [0] => Array
        (
            [car_type_id] => 27
            [car_type_name] => Taxi
            [car_type_image] => uploads/car/car_27.png
            [city_id] => 56
            [base_fare] => 100 Per 100 Miles
            [ride_mode] => 1
            [currency_iso_code] => AUD
            [currency_unicode] => 0024
        )

    [1] => Array
        (
            [car_type_id] => 28
            [car_type_name] => Ambulance
            [car_type_image] => uploads/car/car_28.png
            [city_id] => 56
            [base_fare] => 10 Per 20 Miles
            [ride_mode] => 1
            [currency_iso_code] => AUD
            [currency_unicode] => 0024
        )

    [2] => Array
        (
            [car_type_id] => 29
            [car_type_name] => Boda Boda
            [car_type_image] => uploads/car/car_29.png
            [city_id] => 56
            [base_fare] => 13 Per 12 Miles
            [ride_mode] => 1
            [currency_iso_code] => AUD
            [currency_unicode] => 0024
        )

    [3] => Array
        (
            [car_type_id] => 30
            [car_type_name] => Towing
            [car_type_image] => uploads/car/car_30.png
            [city_id] => 56
            [base_fare] => 13 Per 13 Miles
            [ride_mode] => 1
            [currency_iso_code] => AUD
            [currency_unicode] => 0024
        )

)

city_name: Gurugram
latitude: 28.4120553547634
longitude: 77.0432584229166
-------------------------
Rental - Car Type Api: September 21, 2017, 7:08 pm
Response: Array
(
    [0] => Array
        (
            [car_type_id] => 27
            [car_type_name] => Taxi
            [car_type_image] => uploads/car/car_27.png
            [city_id] => 56
            [base_fare] => 100 Per 100 Miles
            [ride_mode] => 1
            [currency_iso_code] => AUD
            [currency_unicode] => 0024
        )

    [1] => Array
        (
            [car_type_id] => 28
            [car_type_name] => Ambulance
            [car_type_image] => uploads/car/car_28.png
            [city_id] => 56
            [base_fare] => 10 Per 20 Miles
            [ride_mode] => 1
            [currency_iso_code] => AUD
            [currency_unicode] => 0024
        )

    [2] => Array
        (
            [car_type_id] => 29
            [car_type_name] => Boda Boda
            [car_type_image] => uploads/car/car_29.png
            [city_id] => 56
            [base_fare] => 13 Per 12 Miles
            [ride_mode] => 1
            [currency_iso_code] => AUD
            [currency_unicode] => 0024
        )

    [3] => Array
        (
            [car_type_id] => 30
            [car_type_name] => Towing
            [car_type_image] => uploads/car/car_30.png
            [city_id] => 56
            [base_fare] => 13 Per 13 Miles
            [ride_mode] => 1
            [currency_iso_code] => AUD
            [currency_unicode] => 0024
        )

)

city_name: Gurugram
latitude: 28.4120282073018
longitude: 77.04315956105
-------------------------
Rental - Car Type Api: September 21, 2017, 7:10 pm
Response: Array
(
    [0] => Array
        (
            [car_type_id] => 27
            [car_type_name] => Taxi
            [car_type_image] => uploads/car/car_27.png
            [city_id] => 56
            [base_fare] => 100 Per 100 Miles
            [ride_mode] => 1
            [currency_iso_code] => AUD
            [currency_unicode] => 0024
        )

    [1] => Array
        (
            [car_type_id] => 28
            [car_type_name] => Ambulance
            [car_type_image] => uploads/car/car_28.png
            [city_id] => 56
            [base_fare] => 10 Per 20 Miles
            [ride_mode] => 1
            [currency_iso_code] => AUD
            [currency_unicode] => 0024
        )

    [2] => Array
        (
            [car_type_id] => 29
            [car_type_name] => Boda Boda
            [car_type_image] => uploads/car/car_29.png
            [city_id] => 56
            [base_fare] => 13 Per 12 Miles
            [ride_mode] => 1
            [currency_iso_code] => AUD
            [currency_unicode] => 0024
        )

    [3] => Array
        (
            [car_type_id] => 30
            [car_type_name] => Towing
            [car_type_image] => uploads/car/car_30.png
            [city_id] => 56
            [base_fare] => 13 Per 13 Miles
            [ride_mode] => 1
            [currency_iso_code] => AUD
            [currency_unicode] => 0024
        )

)

city_name: Gurugram
latitude: 28.412218492717617
longitude: 77.0432349666953
-------------------------
Rental - Car Type Api: September 21, 2017, 7:11 pm
Response: Array
(
    [0] => Array
        (
            [car_type_id] => 27
            [car_type_name] => Taxi
            [car_type_image] => uploads/car/car_27.png
            [city_id] => 56
            [base_fare] => 100 Per 100 Miles
            [ride_mode] => 1
            [currency_iso_code] => AUD
            [currency_unicode] => 0024
        )

    [1] => Array
        (
            [car_type_id] => 28
            [car_type_name] => Ambulance
            [car_type_image] => uploads/car/car_28.png
            [city_id] => 56
            [base_fare] => 10 Per 20 Miles
            [ride_mode] => 1
            [currency_iso_code] => AUD
            [currency_unicode] => 0024
        )

    [2] => Array
        (
            [car_type_id] => 29
            [car_type_name] => Boda Boda
            [car_type_image] => uploads/car/car_29.png
            [city_id] => 56
            [base_fare] => 13 Per 12 Miles
            [ride_mode] => 1
            [currency_iso_code] => AUD
            [currency_unicode] => 0024
        )

    [3] => Array
        (
            [car_type_id] => 30
            [car_type_name] => Towing
            [car_type_image] => uploads/car/car_30.png
            [city_id] => 56
            [base_fare] => 13 Per 13 Miles
            [ride_mode] => 1
            [currency_iso_code] => AUD
            [currency_unicode] => 0024
        )

)

city_name: Gurugram
latitude: 28.412218492717617
longitude: 77.0432349666953
-------------------------
Rental - Car Type Api: September 21, 2017, 7:22 pm
Response: Array
(
    [0] => Array
        (
            [car_type_id] => 27
            [car_type_name] => Taxi
            [car_type_image] => uploads/car/car_27.png
            [city_id] => 56
            [base_fare] => 100 Per 100 Miles
            [ride_mode] => 1
            [currency_iso_code] => AUD
            [currency_unicode] => 0024
        )

    [1] => Array
        (
            [car_type_id] => 28
            [car_type_name] => Ambulance
            [car_type_image] => uploads/car/car_28.png
            [city_id] => 56
            [base_fare] => 10 Per 20 Miles
            [ride_mode] => 1
            [currency_iso_code] => AUD
            [currency_unicode] => 0024
        )

    [2] => Array
        (
            [car_type_id] => 29
            [car_type_name] => Boda Boda
            [car_type_image] => uploads/car/car_29.png
            [city_id] => 56
            [base_fare] => 13 Per 12 Miles
            [ride_mode] => 1
            [currency_iso_code] => AUD
            [currency_unicode] => 0024
        )

    [3] => Array
        (
            [car_type_id] => 30
            [car_type_name] => Towing
            [car_type_image] => uploads/car/car_30.png
            [city_id] => 56
            [base_fare] => 13 Per 13 Miles
            [ride_mode] => 1
            [currency_iso_code] => AUD
            [currency_unicode] => 0024
        )

)

city_name: Gurugram
latitude: 28.41221701826183
longitude: 77.04323563724756
-------------------------
Rental - Car Type Api: September 21, 2017, 9:09 pm
Response: Array
(
    [0] => Array
        (
            [car_type_id] => 27
            [car_type_name] => Taxi
            [car_type_image] => uploads/car/car_27.png
            [city_id] => 56
            [base_fare] => 100 Per 100 Miles
            [ride_mode] => 1
            [currency_iso_code] => AUD
            [currency_unicode] => 0024
        )

    [1] => Array
        (
            [car_type_id] => 28
            [car_type_name] => Ambulance
            [car_type_image] => uploads/car/car_28.png
            [city_id] => 56
            [base_fare] => 10 Per 20 Miles
            [ride_mode] => 1
            [currency_iso_code] => AUD
            [currency_unicode] => 0024
        )

    [2] => Array
        (
            [car_type_id] => 29
            [car_type_name] => Boda Boda
            [car_type_image] => uploads/car/car_29.png
            [city_id] => 56
            [base_fare] => 13 Per 12 Miles
            [ride_mode] => 1
            [currency_iso_code] => AUD
            [currency_unicode] => 0024
        )

    [3] => Array
        (
            [car_type_id] => 30
            [car_type_name] => Towing
            [car_type_image] => uploads/car/car_30.png
            [city_id] => 56
            [base_fare] => 13 Per 13 Miles
            [ride_mode] => 1
            [currency_iso_code] => AUD
            [currency_unicode] => 0024
        )

)

city_name: Gurugram
latitude: 28.41221878760878
longitude: 77.04323463141918
-------------------------
Rental - Car Type Api: September 21, 2017, 9:26 pm
Response: Array
(
    [0] => Array
        (
            [car_type_id] => 27
            [car_type_name] => Taxi
            [car_type_image] => uploads/car/car_27.png
            [city_id] => 121
            [base_fare] => 80 Per 4 Km
            [ride_mode] => 1
            [currency_iso_code] => AUD
            [currency_unicode] => 0024
        )

    [1] => Array
        (
            [car_type_id] => 28
            [car_type_name] => Ambulance
            [car_type_image] => uploads/car/car_28.png
            [city_id] => 121
            [base_fare] => 80 Per 2 Km
            [ride_mode] => 1
            [currency_iso_code] => AUD
            [currency_unicode] => 0024
        )

    [2] => Array
        (
            [car_type_id] => 29
            [car_type_name] => Boda Boda
            [car_type_image] => uploads/car/car_29.png
            [city_id] => 121
            [base_fare] => 90 Per 6 Km
            [ride_mode] => 1
            [currency_iso_code] => AUD
            [currency_unicode] => 0024
        )

    [3] => Array
        (
            [car_type_id] => 30
            [car_type_name] => Towing
            [car_type_image] => uploads/car/car_30.png
            [city_id] => 121
            [base_fare] => 80 Per 7 Km
            [ride_mode] => 1
            [currency_iso_code] => AUD
            [currency_unicode] => 0024
        )

)

city_name: Nairobi
latitude: -1.2941252024223153
longitude: 36.78416345268488
-------------------------
Rental - Car Type Api: September 21, 2017, 9:26 pm
Response: Array
(
    [0] => Array
        (
            [car_type_id] => 27
            [car_type_name] => Taxi
            [car_type_image] => uploads/car/car_27.png
            [city_id] => 121
            [base_fare] => 80 Per 4 Km
            [ride_mode] => 1
            [currency_iso_code] => AUD
            [currency_unicode] => 0024
        )

    [1] => Array
        (
            [car_type_id] => 28
            [car_type_name] => Ambulance
            [car_type_image] => uploads/car/car_28.png
            [city_id] => 121
            [base_fare] => 80 Per 2 Km
            [ride_mode] => 1
            [currency_iso_code] => AUD
            [currency_unicode] => 0024
        )

    [2] => Array
        (
            [car_type_id] => 29
            [car_type_name] => Boda Boda
            [car_type_image] => uploads/car/car_29.png
            [city_id] => 121
            [base_fare] => 90 Per 6 Km
            [ride_mode] => 1
            [currency_iso_code] => AUD
            [currency_unicode] => 0024
        )

    [3] => Array
        (
            [car_type_id] => 30
            [car_type_name] => Towing
            [car_type_image] => uploads/car/car_30.png
            [city_id] => 121
            [base_fare] => 80 Per 7 Km
            [ride_mode] => 1
            [currency_iso_code] => AUD
            [currency_unicode] => 0024
        )

)

city_name: Nairobi
latitude: -1.294222742887397
longitude: 36.78447525948287
-------------------------
Rental - Car Type Api: September 21, 2017, 9:35 pm
Response: Array
(
    [0] => Array
        (
            [car_type_id] => 27
            [car_type_name] => Taxi
            [car_type_image] => uploads/car/car_27.png
            [city_id] => 121
            [base_fare] => 80 Per 4 Km
            [ride_mode] => 1
            [currency_iso_code] => AUD
            [currency_unicode] => 0024
        )

    [1] => Array
        (
            [car_type_id] => 28
            [car_type_name] => Ambulance
            [car_type_image] => uploads/car/car_28.png
            [city_id] => 121
            [base_fare] => 80 Per 2 Km
            [ride_mode] => 1
            [currency_iso_code] => AUD
            [currency_unicode] => 0024
        )

    [2] => Array
        (
            [car_type_id] => 29
            [car_type_name] => Boda Boda
            [car_type_image] => uploads/car/car_29.png
            [city_id] => 121
            [base_fare] => 90 Per 6 Km
            [ride_mode] => 1
            [currency_iso_code] => AUD
            [currency_unicode] => 0024
        )

    [3] => Array
        (
            [car_type_id] => 30
            [car_type_name] => Towing
            [car_type_image] => uploads/car/car_30.png
            [city_id] => 121
            [base_fare] => 80 Per 7 Km
            [ride_mode] => 1
            [currency_iso_code] => AUD
            [currency_unicode] => 0024
        )

)

city_name: Nairobi
latitude: -1.2941399508090246
longitude: 36.78399916738272
-------------------------
Rental - Car Type Api: September 21, 2017, 9:44 pm
Response: Array
(
    [0] => Array
        (
            [car_type_id] => 27
            [car_type_name] => Taxi
            [car_type_image] => uploads/car/car_27.png
            [city_id] => 121
            [base_fare] => 80 Per 4 Km
            [ride_mode] => 1
            [currency_iso_code] => AUD
            [currency_unicode] => 0024
        )

    [1] => Array
        (
            [car_type_id] => 28
            [car_type_name] => Ambulance
            [car_type_image] => uploads/car/car_28.png
            [city_id] => 121
            [base_fare] => 80 Per 2 Km
            [ride_mode] => 1
            [currency_iso_code] => AUD
            [currency_unicode] => 0024
        )

    [2] => Array
        (
            [car_type_id] => 29
            [car_type_name] => Boda Boda
            [car_type_image] => uploads/car/car_29.png
            [city_id] => 121
            [base_fare] => 90 Per 6 Km
            [ride_mode] => 1
            [currency_iso_code] => AUD
            [currency_unicode] => 0024
        )

    [3] => Array
        (
            [car_type_id] => 30
            [car_type_name] => Towing
            [car_type_image] => uploads/car/car_30.png
            [city_id] => 121
            [base_fare] => 80 Per 7 Km
            [ride_mode] => 1
            [currency_iso_code] => AUD
            [currency_unicode] => 0024
        )

)

city_name: Nairobi
latitude: -1.29345087837706
longitude: 36.7843001651996
-------------------------
Rental - Car Type Api: September 21, 2017, 9:49 pm
Response: Array
(
    [0] => Array
        (
            [car_type_id] => 27
            [car_type_name] => Taxi
            [car_type_image] => uploads/car/car_27.png
            [city_id] => 121
            [base_fare] => 80 Per 4 Km
            [ride_mode] => 1
            [currency_iso_code] => AUD
            [currency_unicode] => 0024
        )

    [1] => Array
        (
            [car_type_id] => 28
            [car_type_name] => Ambulance
            [car_type_image] => uploads/car/car_28.png
            [city_id] => 121
            [base_fare] => 80 Per 2 Km
            [ride_mode] => 1
            [currency_iso_code] => AUD
            [currency_unicode] => 0024
        )

    [2] => Array
        (
            [car_type_id] => 29
            [car_type_name] => Boda Boda
            [car_type_image] => uploads/car/car_29.png
            [city_id] => 121
            [base_fare] => 90 Per 6 Km
            [ride_mode] => 1
            [currency_iso_code] => AUD
            [currency_unicode] => 0024
        )

    [3] => Array
        (
            [car_type_id] => 30
            [car_type_name] => Towing
            [car_type_image] => uploads/car/car_30.png
            [city_id] => 121
            [base_fare] => 80 Per 7 Km
            [ride_mode] => 1
            [currency_iso_code] => AUD
            [currency_unicode] => 0024
        )

)

city_name: Nairobi
latitude: -1.2941453138587256
longitude: 36.784131936728954
-------------------------
Rental - Car Type Api: September 21, 2017, 9:54 pm
Response: Array
(
    [0] => Array
        (
            [car_type_id] => 27
            [car_type_name] => Taxi
            [car_type_image] => uploads/car/car_27.png
            [city_id] => 121
            [base_fare] => 80 Per 4 Km
            [ride_mode] => 1
            [currency_iso_code] => AUD
            [currency_unicode] => 0024
        )

    [1] => Array
        (
            [car_type_id] => 28
            [car_type_name] => Ambulance
            [car_type_image] => uploads/car/car_28.png
            [city_id] => 121
            [base_fare] => 80 Per 2 Km
            [ride_mode] => 1
            [currency_iso_code] => AUD
            [currency_unicode] => 0024
        )

    [2] => Array
        (
            [car_type_id] => 29
            [car_type_name] => Boda Boda
            [car_type_image] => uploads/car/car_29.png
            [city_id] => 121
            [base_fare] => 90 Per 6 Km
            [ride_mode] => 1
            [currency_iso_code] => AUD
            [currency_unicode] => 0024
        )

    [3] => Array
        (
            [car_type_id] => 30
            [car_type_name] => Towing
            [car_type_image] => uploads/car/car_30.png
            [city_id] => 121
            [base_fare] => 80 Per 7 Km
            [ride_mode] => 1
            [currency_iso_code] => AUD
            [currency_unicode] => 0024
        )

)

city_name: Nairobi
latitude: -1.294222742887397
longitude: 36.78447525948287
-------------------------
Rental - Car Type Api: September 21, 2017, 10:05 pm
Response: Array
(
    [0] => Array
        (
            [car_type_id] => 27
            [car_type_name] => Taxi
            [car_type_image] => uploads/car/car_27.png
            [city_id] => 121
            [base_fare] => 80 Per 4 Km
            [ride_mode] => 1
            [currency_iso_code] => AUD
            [currency_unicode] => 0024
        )

    [1] => Array
        (
            [car_type_id] => 28
            [car_type_name] => Ambulance
            [car_type_image] => uploads/car/car_28.png
            [city_id] => 121
            [base_fare] => 80 Per 2 Km
            [ride_mode] => 1
            [currency_iso_code] => AUD
            [currency_unicode] => 0024
        )

    [2] => Array
        (
            [car_type_id] => 29
            [car_type_name] => Boda Boda
            [car_type_image] => uploads/car/car_29.png
            [city_id] => 121
            [base_fare] => 90 Per 6 Km
            [ride_mode] => 1
            [currency_iso_code] => AUD
            [currency_unicode] => 0024
        )

    [3] => Array
        (
            [car_type_id] => 30
            [car_type_name] => Towing
            [car_type_image] => uploads/car/car_30.png
            [city_id] => 121
            [base_fare] => 80 Per 7 Km
            [ride_mode] => 1
            [currency_iso_code] => AUD
            [currency_unicode] => 0024
        )

)

city_name: Nairobi
latitude: -1.29345074533914
longitude: 36.7842908634583
-------------------------
Rental - Car Type Api: September 21, 2017, 11:03 pm
Response: Array
(
    [0] => Array
        (
            [car_type_id] => 27
            [car_type_name] => Taxi
            [car_type_image] => uploads/car/car_27.png
            [city_id] => 121
            [base_fare] => 80 Per 4 Km
            [ride_mode] => 1
            [currency_iso_code] => AUD
            [currency_unicode] => 0024
        )

    [1] => Array
        (
            [car_type_id] => 28
            [car_type_name] => Ambulance
            [car_type_image] => uploads/car/car_28.png
            [city_id] => 121
            [base_fare] => 80 Per 2 Km
            [ride_mode] => 1
            [currency_iso_code] => AUD
            [currency_unicode] => 0024
        )

    [2] => Array
        (
            [car_type_id] => 29
            [car_type_name] => Boda Boda
            [car_type_image] => uploads/car/car_29.png
            [city_id] => 121
            [base_fare] => 90 Per 6 Km
            [ride_mode] => 1
            [currency_iso_code] => AUD
            [currency_unicode] => 0024
        )

    [3] => Array
        (
            [car_type_id] => 30
            [car_type_name] => Towing
            [car_type_image] => uploads/car/car_30.png
            [city_id] => 121
            [base_fare] => 80 Per 7 Km
            [ride_mode] => 1
            [currency_iso_code] => AUD
            [currency_unicode] => 0024
        )

)

city_name: Nairobi
latitude: -1.2744340189083576
longitude: 36.769844479858875
-------------------------
