Rental - Car Type Api: October 1, 2017, 10:31 am
Response: Array
(
    [0] => Array
        (
            [car_type_id] => 27
            [car_type_name] => Taxi
            [car_type_image] => uploads/car/car_27.png
            [city_id] => 121
            [base_fare] => 80 Per 4 Km
            [ride_mode] => 1
            [currency_iso_code] => AUD
            [currency_unicode] => 0024
        )

    [1] => Array
        (
            [car_type_id] => 28
            [car_type_name] => Ambulance
            [car_type_image] => uploads/car/car_28.png
            [city_id] => 121
            [base_fare] => 80 Per 2 Km
            [ride_mode] => 1
            [currency_iso_code] => AUD
            [currency_unicode] => 0024
        )

    [2] => Array
        (
            [car_type_id] => 29
            [car_type_name] => Boda Boda
            [car_type_image] => uploads/car/car_29.png
            [city_id] => 121
            [base_fare] => 90 Per 6 Km
            [ride_mode] => 1
            [currency_iso_code] => AUD
            [currency_unicode] => 0024
        )

    [3] => Array
        (
            [car_type_id] => 30
            [car_type_name] => Towing
            [car_type_image] => uploads/car/car_30.png
            [city_id] => 121
            [base_fare] => 80 Per 7 Km
            [ride_mode] => 1
            [currency_iso_code] => AUD
            [currency_unicode] => 0024
        )

    [4] => Array
        (
            [car_type_id] => 31
            [car_type_name] => hire
            [car_type_image] => uploads/car/editcar_31.png
            [city_id] => 121
            [base_fare] => 200 Per 5 Km
            [ride_mode] => 1
            [currency_iso_code] => AUD
            [currency_unicode] => 0024
        )

    [5] => Array
        (
            [car_type_id] => 32
            [car_type_name] => Hotel transfer
            [car_type_image] => uploads/car/car_32.png
            [city_id] => 121
            [base_fare] =>  Per 200 Km
            [ride_mode] => 1
            [currency_iso_code] => AUD
            [currency_unicode] => 0024
        )

    [6] => Array
        (
            [car_type_id] => 001
            [car_type_name] => Rental
            [car_type_image] => uploads/car/editcar_2.png
            [city_id] => 121
            [distance] => 
            [base_fare] => 
            [ride_mode] => 2
        )

)

city_name: Nairobi
latitude: -1.29755557514848
longitude: 36.7917029746219
-------------------------
