Rental - Car Type Api: October 17, 2017, 2:09 pm
Response: Array
(
    [0] => Array
        (
            [car_type_id] => 27
            [car_type_name] => Taxi
            [car_type_image] => uploads/car/car_27.png
            [city_id] => 121
            [base_fare] => 80 Per 4 Km
            [ride_mode] => 1
            [currency_iso_code] => kes
            [currency_unicode] => 0
        )

    [1] => Array
        (
            [car_type_id] => 28
            [car_type_name] => Ambulance
            [car_type_image] => uploads/car/car_28.png
            [city_id] => 121
            [base_fare] => 80 Per 2 Km
            [ride_mode] => 1
            [currency_iso_code] => kes
            [currency_unicode] => 0
        )

    [2] => Array
        (
            [car_type_id] => 29
            [car_type_name] => Boda Boda
            [car_type_image] => uploads/car/car_29.png
            [city_id] => 121
            [base_fare] => 90 Per 6 Km
            [ride_mode] => 1
            [currency_iso_code] => kes
            [currency_unicode] => 0
        )

    [3] => Array
        (
            [car_type_id] => 30
            [car_type_name] => Towing
            [car_type_image] => uploads/car/car_30.png
            [city_id] => 121
            [base_fare] => 80 Per 7 Km
            [ride_mode] => 1
            [currency_iso_code] => kes
            [currency_unicode] => 0
        )

    [4] => Array
        (
            [car_type_id] => 31
            [car_type_name] => hire
            [car_type_image] => uploads/car/editcar_31.png
            [city_id] => 121
            [base_fare] => 200 Per 5 Km
            [ride_mode] => 1
            [currency_iso_code] => kes
            [currency_unicode] => 0
        )

    [5] => Array
        (
            [car_type_id] => 32
            [car_type_name] => Hotel transfer
            [car_type_image] => uploads/car/car_32.png
            [city_id] => 121
            [base_fare] =>  Per 200 Km
            [ride_mode] => 1
            [currency_iso_code] => kes
            [currency_unicode] => 0
        )

    [6] => Array
        (
            [car_type_id] => 33
            [car_type_name] => hire
            [car_type_image] => uploads/car/editcar_33.png
            [city_id] => 121
            [base_fare] =>  Per  Km
            [ride_mode] => 1
            [currency_iso_code] => kes
            [currency_unicode] => 0
        )

    [7] => Array
        (
            [car_type_id] => 34
            [car_type_name] => school pick and drop
            [car_type_image] => uploads/car/editcar_34.png
            [city_id] => 121
            [base_fare] => 200 Per 1 Km
            [ride_mode] => 1
            [currency_iso_code] => kes
            [currency_unicode] => 0
        )

    [8] => Array
        (
            [car_type_id] => 001
            [car_type_name] => Rental
            [car_type_image] => uploads/car/editcar_2.png
            [city_id] => 121
            [distance] => 
            [base_fare] => 
            [ride_mode] => 2
        )

)

city_name: Nairobi
latitude: -1.294131235853251
longitude: 36.78407561033964
-------------------------
Rental - Car Type Api: October 17, 2017, 2:18 pm
Response: Array
(
    [0] => Array
        (
            [car_type_id] => 27
            [car_type_name] => Taxi
            [car_type_image] => uploads/car/car_27.png
            [city_id] => 121
            [base_fare] => 80 Per 4 Km
            [ride_mode] => 1
            [currency_iso_code] => kes
            [currency_unicode] => 0
        )

    [1] => Array
        (
            [car_type_id] => 28
            [car_type_name] => Ambulance
            [car_type_image] => uploads/car/car_28.png
            [city_id] => 121
            [base_fare] => 80 Per 2 Km
            [ride_mode] => 1
            [currency_iso_code] => kes
            [currency_unicode] => 0
        )

    [2] => Array
        (
            [car_type_id] => 29
            [car_type_name] => Boda Boda
            [car_type_image] => uploads/car/car_29.png
            [city_id] => 121
            [base_fare] => 90 Per 6 Km
            [ride_mode] => 1
            [currency_iso_code] => kes
            [currency_unicode] => 0
        )

    [3] => Array
        (
            [car_type_id] => 30
            [car_type_name] => Towing
            [car_type_image] => uploads/car/car_30.png
            [city_id] => 121
            [base_fare] => 80 Per 7 Km
            [ride_mode] => 1
            [currency_iso_code] => kes
            [currency_unicode] => 0
        )

    [4] => Array
        (
            [car_type_id] => 31
            [car_type_name] => hire
            [car_type_image] => uploads/car/editcar_31.png
            [city_id] => 121
            [base_fare] => 200 Per 5 Km
            [ride_mode] => 1
            [currency_iso_code] => kes
            [currency_unicode] => 0
        )

    [5] => Array
        (
            [car_type_id] => 32
            [car_type_name] => Hotel transfer
            [car_type_image] => uploads/car/car_32.png
            [city_id] => 121
            [base_fare] =>  Per 200 Km
            [ride_mode] => 1
            [currency_iso_code] => kes
            [currency_unicode] => 0
        )

    [6] => Array
        (
            [car_type_id] => 33
            [car_type_name] => hire
            [car_type_image] => uploads/car/editcar_33.png
            [city_id] => 121
            [base_fare] =>  Per  Km
            [ride_mode] => 1
            [currency_iso_code] => kes
            [currency_unicode] => 0
        )

    [7] => Array
        (
            [car_type_id] => 34
            [car_type_name] => school pick and drop
            [car_type_image] => uploads/car/editcar_34.png
            [city_id] => 121
            [base_fare] => 200 Per 1 Km
            [ride_mode] => 1
            [currency_iso_code] => kes
            [currency_unicode] => 0
        )

    [8] => Array
        (
            [car_type_id] => 001
            [car_type_name] => Rental
            [car_type_image] => uploads/car/editcar_2.png
            [city_id] => 121
            [distance] => 
            [base_fare] => 
            [ride_mode] => 2
        )

)

city_name: Nairobi
latitude: -1.2941389452372105
longitude: 36.78406488150358
-------------------------
