Rental - Car Type Api: November 23, 2017, 11:02 am
Response: Array
(
    [0] => Array
        (
            [car_type_id] => 28
            [car_type_name] => Ambulance
            [car_type_image] => uploads/car/car_28.png
            [city_id] => 121
            [base_fare] => 80 Per 2 Km
            [ride_mode] => 1
            [currency_iso_code] => kes
            [currency_unicode] => 0
        )

    [1] => Array
        (
            [car_type_id] => 29
            [car_type_name] => Boda Boda
            [car_type_image] => uploads/car/editcar_29.png
            [city_id] => 121
            [base_fare] => 90 Per 6 Km
            [ride_mode] => 1
            [currency_iso_code] => kes
            [currency_unicode] => 0
        )

    [2] => Array
        (
            [car_type_id] => 30
            [car_type_name] => Towing
            [car_type_image] => uploads/car/car_30.png
            [city_id] => 121
            [base_fare] => 80 Per 7 Km
            [ride_mode] => 1
            [currency_iso_code] => kes
            [currency_unicode] => 0
        )

    [3] => Array
        (
            [car_type_id] => 31
            [car_type_name] => hire
            [car_type_image] => uploads/car/editcar_31.png
            [city_id] => 121
            [base_fare] => 200 Per 5 Km
            [ride_mode] => 1
            [currency_iso_code] => kes
            [currency_unicode] => 0
        )

    [4] => Array
        (
            [car_type_id] => 32
            [car_type_name] => Hotel transfer
            [car_type_image] => uploads/car/car_32.png
            [city_id] => 121
            [base_fare] =>  Per 200 Km
            [ride_mode] => 1
            [currency_iso_code] => kes
            [currency_unicode] => 0
        )

    [5] => Array
        (
            [car_type_id] => 33
            [car_type_name] => Corporate taxi
            [car_type_image] => uploads/car/editcar_33.png
            [city_id] => 121
            [base_fare] =>  Per  Km
            [ride_mode] => 1
            [currency_iso_code] => kes
            [currency_unicode] => 0
        )

    [6] => Array
        (
            [car_type_id] => 34
            [car_type_name] => school pick and drop
            [car_type_image] => uploads/car/editcar_34.png
            [city_id] => 121
            [base_fare] => 200 Per 1 Km
            [ride_mode] => 1
            [currency_iso_code] => kes
            [currency_unicode] => 0
        )

    [7] => Array
        (
            [car_type_id] => 001
            [car_type_name] => Rental
            [car_type_image] => uploads/car/editcar_2.png
            [city_id] => 121
            [distance] => 
            [base_fare] => 
            [ride_mode] => 2
        )

)

city_name: Nairobi
latitude: -1.2941084428918506
longitude: 36.784119196236134
-------------------------
Rental - Car Type Api: November 23, 2017, 11:04 am
Response: Array
(
    [0] => Array
        (
            [car_type_id] => 28
            [car_type_name] => Ambulance
            [car_type_image] => uploads/car/car_28.png
            [city_id] => 121
            [base_fare] => 80 Per 2 Km
            [ride_mode] => 1
            [currency_iso_code] => kes
            [currency_unicode] => 0
        )

    [1] => Array
        (
            [car_type_id] => 29
            [car_type_name] => Boda Boda
            [car_type_image] => uploads/car/editcar_29.png
            [city_id] => 121
            [base_fare] => 90 Per 6 Km
            [ride_mode] => 1
            [currency_iso_code] => kes
            [currency_unicode] => 0
        )

    [2] => Array
        (
            [car_type_id] => 30
            [car_type_name] => Towing
            [car_type_image] => uploads/car/car_30.png
            [city_id] => 121
            [base_fare] => 80 Per 7 Km
            [ride_mode] => 1
            [currency_iso_code] => kes
            [currency_unicode] => 0
        )

    [3] => Array
        (
            [car_type_id] => 31
            [car_type_name] => hire
            [car_type_image] => uploads/car/editcar_31.png
            [city_id] => 121
            [base_fare] => 200 Per 5 Km
            [ride_mode] => 1
            [currency_iso_code] => kes
            [currency_unicode] => 0
        )

    [4] => Array
        (
            [car_type_id] => 32
            [car_type_name] => Hotel transfer
            [car_type_image] => uploads/car/car_32.png
            [city_id] => 121
            [base_fare] =>  Per 200 Km
            [ride_mode] => 1
            [currency_iso_code] => kes
            [currency_unicode] => 0
        )

    [5] => Array
        (
            [car_type_id] => 33
            [car_type_name] => Corporate taxi
            [car_type_image] => uploads/car/editcar_33.png
            [city_id] => 121
            [base_fare] =>  Per  Km
            [ride_mode] => 1
            [currency_iso_code] => kes
            [currency_unicode] => 0
        )

    [6] => Array
        (
            [car_type_id] => 34
            [car_type_name] => school pick and drop
            [car_type_image] => uploads/car/editcar_34.png
            [city_id] => 121
            [base_fare] => 200 Per 1 Km
            [ride_mode] => 1
            [currency_iso_code] => kes
            [currency_unicode] => 0
        )

    [7] => Array
        (
            [car_type_id] => 001
            [car_type_name] => Rental
            [car_type_image] => uploads/car/editcar_2.png
            [city_id] => 121
            [distance] => 
            [base_fare] => 
            [ride_mode] => 2
        )

)

city_name: Nairobi
latitude: -1.2940920185519016
longitude: 36.78418759256601
-------------------------
