car by city api -: October 5, 2017, 6:32 am
Response: {"result":1,"msg":[{"car_type_id":"27","car_type_name":"Taxi","car_name_arabic":"","car_type_name_french":"","car_type_image":"uploads\/car\/car_27.png","cartype_image_size":"4968","ride_mode":"1","car_admin_status":"1","city_id":"56"},{"car_type_id":"28","car_type_name":"Ambulance","car_name_arabic":"","car_type_name_french":"","car_type_image":"uploads\/car\/car_28.png","cartype_image_size":"6087","ride_mode":"1","car_admin_status":"1","city_id":"56"},{"car_type_id":"29","car_type_name":"Boda Boda","car_name_arabic":"","car_type_name_french":"","car_type_image":"uploads\/car\/car_29.png","cartype_image_size":"5952","ride_mode":"1","car_admin_status":"1","city_id":"56"},{"car_type_id":"30","car_type_name":"Towing","car_name_arabic":"","car_type_name_french":"","car_type_image":"uploads\/car\/car_30.png","cartype_image_size":"7077","ride_mode":"1","car_admin_status":"1","city_id":"56"}]}
city_id: 56
-------------------------
