car by city api -: October 31, 2017, 4:57 am
Response: {"result":1,"msg":"0.00143656262825","details":{"ride_id":"100","user_id":"1","coupon_code":"","pickup_lat":"28.412341167366343","pickup_long":"77.04342473298311","pickup_location":"IRIS Tech Park, Sector 49, Gurugram, Haryana 122018, India","drop_lat":"28.4592693","drop_long":"77.0724192","drop_location":"Huda Metro Station","ride_date":"Tuesday, Oct 31","ride_time":"04:57:58","last_time_stamp":"04:57:58 AM","ride_image":"https:maps.googleapis.com\/maps\/api\/staticmap?center=&zoom=12&size=200x200&maptype=roadmap&markers=color:green|label:S|28.412341167366343,77.04342473298311&markers=color:red|label:D|28.4592693,77.0724192&key=AIzaSyAIFe17P91Mfez3T6cqk7hfDSyvMO812Z4","later_date":"","later_time":"","driver_id":"0","car_type_id":"27","ride_type":"1","pem_file":"1","ride_status":"1","payment_status":"0","reason_id":"0","payment_option_id":"1","card_id":"0","ride_platform":"1","ride_admin_status":"1","date":"2017-10-31"}}
drop_lat: 28.4592693
drop_long: 77.0724192
drop_location: Huda Metro Station
car_type_id:27
user_id:1
coupon_code :
pickup_lat : 28.412341167366343
pickup_long : 77.04342473298311
pickup_location :IRIS Tech Park, Sector 49, Gurugram, Haryana 122018, India
payment_option_id :1
card_id :
pem_file :1
-------------------------
Ride Accept api -: October 31, 2017, 4:58 am
Response: {"result":0,"msg":"Required 1 missing!!"}
ride_id: 
driver_id: 
driver_token: 
-------------------------
Ride Accept api -: October 31, 2017, 4:58 am
Response: {"result":1,"msg":"Booking Accepted!!","details":{"ride_id":"100","user_id":"1","coupon_code":"","pickup_lat":"28.412341167366343","pickup_long":"77.04342473298311","pickup_location":"IRIS Tech Park, Sector 49, Gurugram, Haryana 122018, India","drop_lat":"28.4592693","drop_long":"77.0724192","drop_location":"Huda Metro Station","ride_date":"Tuesday, Oct 31","ride_time":"04:57:58","last_time_stamp":"04:58:03 AM","ride_image":"https:maps.googleapis.com\/maps\/api\/staticmap?center=&zoom=12&size=200x200&maptype=roadmap&markers=color:green|label:S|28.412341167366343,77.04342473298311&markers=color:red|label:D|28.4592693,77.0724192&key=AIzaSyAIFe17P91Mfez3T6cqk7hfDSyvMO812Z4","later_date":"","later_time":"","driver_id":"17","car_type_id":"27","ride_type":"1","pem_file":"1","ride_status":"3","payment_status":"0","reason_id":"0","payment_option_id":"1","card_id":"0","ride_platform":"1","ride_admin_status":"1","date":"2017-10-31","user_type":"1","user_name":"ankit .","user_email":"ankit@apporio.com","user_phone":"+919540956147","user_password":"123456","user_image":"","device_id":"dGMn5Sub5fg:APA91bHyu60H1T90rfetF0Q7ksVQ1fxKEOH8YgLFDUcdOjRXsmeirbVDu-O2mKhA2pirydBZqrdRpiSr7yERQ6RziZ0tr9OnPwMRr8F9oD7T1i1uitW9OBHALyywFxUBHzfl6BG0NveY","flag":"2","wallet_money":"0","register_date":"Tuesday, Oct 10","referral_code":"","free_rides":"0","referral_code_send":"0","phone_verified":"0","email_verified":"0","password_created":"0","facebook_id":"","facebook_mail":"","facebook_image":"","facebook_firstname":"","facebook_lastname":"","google_id":"","google_name":"","google_mail":"","google_image":"","google_token":"","facebook_token":"","token_created":"0","login_logout":"1","rating":"1.45","user_delete":"0","unique_number":"","user_signup_type":"1","user_signup_date":"2017-09-21","status":"1","car_type_name":"Taxi","car_name_arabic":"????? ????","car_type_name_french":"","car_type_image":"uploads\/car\/car_27.png","cartype_image_size":"4968","cartype_big_image":"webstatic\/img\/fleet-image\/prime-play.png","car_longdescription":"The all too familiar Taxi, minus the hassle of waiting and haggling for price. A convenient way to travel everyday.","car_longdescription_arabic":"????? ?????? ???? ???? ??????? ?? ???????? ????????? ?????. ????? ????? ????? ????? ?? ???.","car_description":"Get an Taxi at your doorstep","car_description_arabic":"?????? ??? ????? ???? ??? ???? ?????","ride_mode":"1","car_admin_status":"1","company_id":"49","commission":"4","driver_name":"mary","driver_email":"maryhsj@gmail.com","driver_phone":"722411441","driver_image":"","driver_password":"12345","driver_token":"DAYtGUkfKQAtoOeg","driver_category":"0","total_payment_eraned":"719.14","company_payment":"29.96","driver_payment":"","car_model_id":"43","car_number":"KBZ 234b","city_id":"121","license":"","license_expire":"","rc":"","rc_expire":"","insurance":"","insurance_expire":"","other_docs":"","driver_bank_name":"","driver_account_number":"","total_card_payment":"0.00","total_cash_payment":"0.00","amount_transfer_pending":"0.00","current_lat":"28.4123286","current_long":"77.043428","current_location":"----","last_update":"04:58","last_update_date":"Tuesday, Oct 31, 2017","completed_rides":"8","reject_rides":"1","cancelled_rides":"5","busy":"1","online_offline":"1","detail_status":"2","payment_transfer":"0","verification_date":"2017-10-10","verification_status":"1","driver_signup_date":"2017-10-10","driver_status_image":"http:\/\/www.apporiotaxi.com\/superadminpanel\/images\/icons8-Error-80.png","driver_status_message":"your document id in under process, You will be notified very soon","total_document_need":"3","driver_admin_status":"1","verfiy_document":"3"}}
ride_id: 100
driver_id: 17
driver_token: DAYtGUkfKQAtoOeg
-------------------------
ride start to road  Api - : October 31, 2017, 4:58 am
ride_id :100
driver_id: 17
begin_lat: 28.4123121
begin_long: 77.0434492
driver_token: DAYtGUkfKQAtoOeg
-------------------------
ride end Api - : October 31, 2017, 4:58 am
ride_id: 100
driver_id: 17
end_lat: 28.4123062
end_long: 77.0434338
meter_distance: 0.0
lat_long: 
-------------------------
car by city api -: October 31, 2017, 7:39 am
Response: {"result":1,"msg":"0.00719597480106","details":{"ride_id":"101","user_id":"1","coupon_code":"","pickup_lat":"28.41233497465913","pickup_long":"77.04343277961016","pickup_location":"IRIS Tech Park, Sector 49, Gurugram, Haryana 122018, India","drop_lat":"28.4592693","drop_long":"77.0724192","drop_location":"Huda Metro Station","ride_date":"Tuesday, Oct 31","ride_time":"07:39:19","last_time_stamp":"07:39:19 AM","ride_image":"https:maps.googleapis.com\/maps\/api\/staticmap?center=&zoom=12&size=200x200&maptype=roadmap&markers=color:green|label:S|28.41233497465913,77.04343277961016&markers=color:red|label:D|28.4592693,77.0724192&key=AIzaSyAIFe17P91Mfez3T6cqk7hfDSyvMO812Z4","later_date":"","later_time":"","driver_id":"0","car_type_id":"27","ride_type":"1","pem_file":"1","ride_status":"1","payment_status":"0","reason_id":"0","payment_option_id":"1","card_id":"0","ride_platform":"1","ride_admin_status":"1","date":"2017-10-31"}}
drop_lat: 28.4592693
drop_long: 77.0724192
drop_location: Huda Metro Station
car_type_id:27
user_id:1
coupon_code :
pickup_lat : 28.41233497465913
pickup_long : 77.04343277961016
pickup_location :IRIS Tech Park, Sector 49, Gurugram, Haryana 122018, India
payment_option_id :1
card_id :
pem_file :1
-------------------------
