Driver App - Login driver Api: November 15, 2017, 5:55 am
Response: Array
(
    [driver_id] => 16
    [company_id] => 46
    [commission] => 5
    [driver_name] => Paul
    [driver_email] => Paulmahiaini@stoiccarcentre.com
    [driver_phone] => 722411441
    [driver_image] => uploads/driver/1506006331driver_4.jpg
    [driver_password] => 123456
    [driver_token] => gPJastm5hk5gE3ak
    [driver_category] => 0
    [total_payment_eraned] => 465.5
    [company_payment] => 24.5
    [driver_payment] => 
    [device_id] => fyT6PbSKRns:APA91bHJUEQLmtv7MGLXq8mu5m_9JbVA-pq853BQCyfwhACnFwvVvMEJaT5pf4WZgZD6j8OK9ANyDAonnPV0LQT5X2NjhyJwhTlY1UMRnVgrokQj-vfDF43YYcufa3w6sm0ch3xSjVPJ
    [flag] => 2
    [rating] => 1.3
    [car_type_id] => 29
    [car_model_id] => 48
    [car_number] => KBT 234B
    [city_id] => 121
    [register_date] => Tuesday, Oct 10
    [license] => 
    [license_expire] => 
    [rc] => 
    [rc_expire] => 
    [insurance] => 
    [insurance_expire] => 
    [other_docs] => 
    [driver_bank_name] => 
    [driver_account_number] => 
    [total_card_payment] => 0.00
    [total_cash_payment] => 0.00
    [amount_transfer_pending] => 0.00
    [current_lat] => -1.2944738
    [current_long] => 36.7844752
    [current_location] => ----
    [last_update] => 06:03
    [last_update_date] => Tuesday, Nov 14, 2017
    [completed_rides] => 3
    [reject_rides] => 3
    [cancelled_rides] => 2
    [login_logout] => 1
    [busy] => 0
    [online_offline] => 1
    [detail_status] => 2
    [payment_transfer] => 0
    [verification_date] => 2017-10-10
    [verification_status] => 1
    [unique_number] => 
    [driver_signup_date] => 2017-10-10
    [driver_status_image] => http://www.apporiotaxi.com/superadminpanel/images/icons8-Error-80.png
    [driver_status_message] => your document id in under process, You will be notified very soon
    [total_document_need] => 3
    [driver_admin_status] => 1
    [verfiy_document] => 3
    [city_name] => Nairobi
    [city_latitude] => -1.2920659
    [city_longitude] => 36.8219462
    [currency] => kes
    [currency_iso_code] => kes
    [currency_unicode] => 0
    [distance] => Km
    [city_name_arabic] => 
    [city_name_french] => 
    [city_admin_status] => 1
    [car_type_name] => Boda Boda
    [car_model_name] => R15
)

driver_email_phone: 722411441
driver_password: 123456
-------------------------
