Driver App - Login driver Api: November 30, 2017, 7:37 am
Response: Array
(
    [driver_id] => 98
    [company_id] => 51
    [commission] => 10
    [driver_name] => Peter Mwangi
    [driver_email] => pmwangi@gmail.com
    [driver_phone] => +254716304004
    [driver_image] => uploads/driver/1512024606driver_98.png
    [driver_password] => 123456
    [driver_token] => 4nZdkywowIt5YorC
    [driver_category] => 0
    [total_payment_eraned] => 0
    [company_payment] => 0
    [driver_payment] => 
    [device_id] => 
    [flag] => 0
    [rating] => 
    [car_type_id] => 2
    [car_model_id] => 3
    [car_number] => KBZ 345R
    [city_id] => 121
    [register_date] => Thursday, Nov 30
    [license] => 
    [license_expire] => 
    [rc] => 
    [rc_expire] => 
    [insurance] => 
    [insurance_expire] => 
    [other_docs] => 
    [driver_bank_name] => 
    [driver_account_number] => 
    [total_card_payment] => 0.00
    [total_cash_payment] => 0.00
    [amount_transfer_pending] => 0.00
    [current_lat] => 
    [current_long] => 
    [current_location] => 
    [last_update] => 
    [last_update_date] => 
    [completed_rides] => 0
    [reject_rides] => 0
    [cancelled_rides] => 0
    [login_logout] => 1
    [busy] => 0
    [online_offline] => 0
    [detail_status] => 2
    [payment_transfer] => 0
    [verification_date] => 2017-11-30
    [verification_status] => 1
    [unique_number] => 
    [driver_signup_date] => 2017-11-30
    [driver_status_image] => http://www.apporiotaxi.com/superadminpanel/images/icons8-Error-80.png
    [driver_status_message] => your document id in under process, You will be notified very soon
    [total_document_need] => 3
    [driver_admin_status] => 1
    [verfiy_document] => 3
    [city_name] => Nairobi
    [city_latitude] => -1.2920659
    [city_longitude] => 36.8219462
    [currency] => kes
    [currency_iso_code] => kes
    [currency_unicode] => 0
    [distance] => Km
    [city_name_arabic] => 
    [city_name_french] => 
    [city_admin_status] => 1
    [car_type_name] => Taxi
    [car_model_name] => Nano
)

driver_email_phone: pmwangi@gmail.com
driver_password: 123456
-------------------------
Driver App - Login driver Api: November 30, 2017, 7:54 am
Response: Array
(
    [driver_id] => 98
    [company_id] => 51
    [commission] => 10
    [driver_name] => Peter Mwangi
    [driver_email] => pmwangi@gmail.com
    [driver_phone] => +254716304004
    [driver_image] => uploads/driver/1512024606driver_98.png
    [driver_password] => 123456
    [driver_token] => 7cHzd1OWnt31j46X
    [driver_category] => 0
    [total_payment_eraned] => 0
    [company_payment] => 0
    [driver_payment] => 
    [device_id] => d8DpbZ_zpVw:APA91bGB3HnE2Uc1aV6365Sb1icmuFEyiJlowRekciTBZl76f3gFh9fZJHdPkZkMDLdmsLmdSEFMd04tuTlIlPKJvO2B0xZRATZjqmxqSJAQ4hmVbLJZKHkMr-Hen-XQKkTFnFP9rKW-
    [flag] => 2
    [rating] => 
    [car_type_id] => 30
    [car_model_id] => 46
    [car_number] => KBZ 345R
    [city_id] => 121
    [register_date] => Thursday, Nov 30
    [license] => 
    [license_expire] => 
    [rc] => 
    [rc_expire] => 
    [insurance] => 
    [insurance_expire] => 
    [other_docs] => 
    [driver_bank_name] => 
    [driver_account_number] => 
    [total_card_payment] => 0.00
    [total_cash_payment] => 0.00
    [amount_transfer_pending] => 0.00
    [current_lat] => -1.29409
    [current_long] => 36.8062483
    [current_location] => 
    [last_update] => 07:53
    [last_update_date] => Thursday, Nov 30, 2017
    [completed_rides] => 0
    [reject_rides] => 0
    [cancelled_rides] => 0
    [login_logout] => 1
    [busy] => 0
    [online_offline] => 0
    [detail_status] => 2
    [payment_transfer] => 0
    [verification_date] => 2017-11-30
    [verification_status] => 1
    [unique_number] => 
    [driver_signup_date] => 2017-11-30
    [driver_status_image] => http://www.apporiotaxi.com/superadminpanel/images/icons8-Error-80.png
    [driver_status_message] => your document id in under process, You will be notified very soon
    [total_document_need] => 3
    [driver_admin_status] => 1
    [verfiy_document] => 3
    [city_name] => Nairobi
    [city_latitude] => -1.2920659
    [city_longitude] => 36.8219462
    [currency] => kes
    [currency_iso_code] => kes
    [currency_unicode] => 0
    [distance] => Km
    [city_name_arabic] => 
    [city_name_french] => 
    [city_admin_status] => 1
    [car_type_name] => Towing
    [car_model_name] => LargeTowing
)

driver_email_phone: pmwangi@gmail.com
driver_password: 123456
-------------------------
Ride Accept api -: November 30, 2017, 7:57 am
Response: {"result":1,"msg":"Booking Accepted!!","details":{"ride_id":"208","user_id":"23","coupon_code":"","pickup_lat":"-1.2953246","pickup_long":"36.80505219999998","pickup_location":"Nairobi Hospital, Nairobi, Nairobi County, Kenya","drop_lat":"-1.2746653","drop_long":"36.82906460000004","drop_location":"Ngara, Nairobi, Nairobi County, Kenya","ride_date":"Thursday, Nov 30","ride_time":"07:56:47","last_time_stamp":"07:57:05 AM","ride_image":"https:maps.googleapis.com\/maps\/api\/staticmap?center=&zoom=12&size=600x300&maptype=roadmap&markers=color:green|label:S|-1.2953246,36.80505219999998&markers=color:red|label:D|-1.2746653,36.82906460000004&key=AIzaSyAIFe17P91Mfez3T6cqk7hfDSyvMO812Z4","later_date":"","later_time":"","driver_id":"98","car_type_id":"30","ride_type":"1","pem_file":"1","ride_status":"3","payment_status":"0","reason_id":"0","payment_option_id":"1","card_id":"0","ride_platform":"1","ride_admin_status":"1","date":"2017-11-30","company_id":"51","user_type":"1","user_name":"ANTHONY WANJOHI .","user_email":"awanjohim@gmail.com","user_phone":"+254731011160","user_password":"123456","user_image":"http:\/\/apporio.org\/Bebalink\/bebalink\/uploads\/1510822058328.jpg","device_id":"d8DpbZ_zpVw:APA91bGB3HnE2Uc1aV6365Sb1icmuFEyiJlowRekciTBZl76f3gFh9fZJHdPkZkMDLdmsLmdSEFMd04tuTlIlPKJvO2B0xZRATZjqmxqSJAQ4hmVbLJZKHkMr-Hen-XQKkTFnFP9rKW-","flag":"2","wallet_money":"0","register_date":"Thursday, Nov 30","referral_code":"","free_rides":"0","referral_code_send":"0","phone_verified":"0","email_verified":"0","password_created":"0","facebook_id":"","facebook_mail":"","facebook_image":"","facebook_firstname":"","facebook_lastname":"","google_id":"111681666498032182001","google_name":"ANTHONY WANJOHI","google_mail":"awanjohim@gmail.com","google_image":"https:\/\/lh5.googleusercontent.com\/-oMccQu-dxBM\/AAAAAAAAAAI\/AAAAAAAAAi4\/uiXEmq14j6E\/photo.jpg","google_token":"","facebook_token":"","token_created":"0","login_logout":"1","rating":"","user_delete":"1","unique_number":"","user_signup_type":"1","user_signup_date":"2017-11-16","status":"2","car_type_name":"Towing","car_name_arabic":"\u0642\u0637\u0631","car_type_name_french":"","car_type_image":"uploads\/car\/car_30.png","cartype_image_size":"7077","cartype_big_image":"webstatic\/img\/fleet-image\/towing_truck.png","car_longdescription":"The all too familiar Towing, minus the hassle of waiting and haggling for price. A convenient way to travel everyday.","car_longdescription_arabic":"\u0643\u0644 \u0645\u0627 \u0647\u0648 \u0645\u0623\u0644\u0648\u0641 \u062a\u0648\u0646\u064a\u0646\u063a\u060c \u0646\u0627\u0642\u0635 \u0627\u0644\u0627\u0632\u0639\u0627\u062c \u0645\u0646 \u0627\u0644\u0627\u0646\u062a\u0638\u0627\u0631 \u0648\u0627\u0644\u0645\u0633\u0627\u0648\u0645\u0629 \u0644\u0644\u0633\u0639\u0631. \u0648\u0647\u0646\u0627\u0643 \u0637\u0631\u064a\u0642\u0629 \u0645\u0631\u064a\u062d\u0629 \u0644\u0644\u0633\u0641\u0631 \u0643\u0644 \u064a\u0648\u0645.","car_description":"Get an Towing at your doorstep","car_description_arabic":"\u0627\u0644\u062d\u0635\u0648\u0644 \u0639\u0644\u0649 \u0633\u062d\u0628 \u0639\u0644\u0649 \u0639\u062a\u0628\u0629 \u062f\u0627\u0631\u0643\u0645","ride_mode":"1","car_admin_status":"1","commission":"10","driver_name":"Peter Mwangi","driver_email":"pmwangi@gmail.com","driver_phone":"+254716304004","driver_image":"uploads\/driver\/1512024606driver_98.png","driver_password":"123456","driver_token":"7cHzd1OWnt31j46X","driver_category":"0","total_payment_eraned":"0","company_payment":"0","driver_payment":"","car_model_id":"46","car_number":"KBZ 345R","city_id":"121","license":"","license_expire":"","rc":"","rc_expire":"","insurance":"","insurance_expire":"","other_docs":"","driver_bank_name":"","driver_account_number":"","total_card_payment":"0.00","total_cash_payment":"0.00","amount_transfer_pending":"0.00","current_lat":"-1.294155","current_long":"36.8063367","current_location":"----","last_update":"07:57","last_update_date":"Thursday, Nov 30, 2017","completed_rides":"0","reject_rides":"0","cancelled_rides":"0","busy":"1","online_offline":"1","detail_status":"2","payment_transfer":"0","verification_date":"2017-11-30","verification_status":"1","driver_signup_date":"2017-11-30","driver_status_image":"http:\/\/www.apporiotaxi.com\/superadminpanel\/images\/icons8-Error-80.png","driver_status_message":"your document id in under process, You will be notified very soon","total_document_need":"3","driver_admin_status":"1","verfiy_document":"3"}}
ride_id: 208
driver_id: 98
driver_token: 7cHzd1OWnt31j46X
-------------------------
ride start to road  Api - : November 30, 2017, 8:00 am
ride_id :208
driver_id: 98
begin_lat: -1.2941417
begin_long: 36.8062583
driver_token: 7cHzd1OWnt31j46X
-------------------------
ride end Api - : November 30, 2017, 8:03 am
ride_id: 208
driver_id: 98
end_lat: -1.29425
end_long: 36.8061733
meter_distance: 0.0
lat_long: 
-------------------------
