car by city api -: November 10, 2017, 9:03 am
Response: {"result":1,"msg":[]}
city_id: 123
-------------------------
car by city api -: November 10, 2017, 9:03 am
Response: {"result":1,"msg":[{"car_type_id":"2","car_type_name":"Taxi","car_name_arabic":"\u0633\u064a\u0627\u0631\u0629 \u0627\u062c\u0631\u0647","car_type_name_french":"","car_type_image":"uploads\/car\/car_27.png","cartype_image_size":"4968","cartype_big_image":"webstatic\/img\/fleet-image\/kaali-peeli.png","car_longdescription":"The all too familiar Taxi, minus the hassle of waiting and haggling for price. A convenient way to travel everyday.","car_longdescription_arabic":"\u062a\u0627\u0643\u0633\u064a \u0645\u0623\u0644\u0648\u0641\u0629 \u062c\u062f\u0627\u060c \u0646\u0627\u0642\u0635 \u0627\u0644\u0627\u0632\u0639\u0627\u062c \u0645\u0646 \u0627\u0644\u0627\u0646\u062a\u0638\u0627\u0631 \u0648\u0627\u0644\u0645\u0633\u0627\u0648\u0645\u0629 \u0644\u0644\u0633\u0639\u0631. \u0648\u0647\u0646\u0627\u0643 \u0637\u0631\u064a\u0642\u0629 \u0645\u0631\u064a\u062d\u0629 \u0644\u0644\u0633\u0641\u0631 \u0643\u0644 \u064a\u0648\u0645.","car_description":"Get an Taxi at your doorstep","car_description_arabic":"\u0627\u0644\u062d\u0635\u0648\u0644 \u0639\u0644\u0649 \u0633\u064a\u0627\u0631\u0629 \u0623\u062c\u0631\u0629 \u0639\u0644\u0649 \u0639\u062a\u0628\u0629 \u062f\u0627\u0631\u0643\u0645","ride_mode":"1","car_admin_status":"1","city_id":"56"},{"car_type_id":"28","car_type_name":"Ambulance","car_name_arabic":"\u0633\u064a\u0627\u0631\u0647 \u0627\u0633\u0639\u0627\u0641","car_type_name_french":"","car_type_image":"uploads\/car\/car_28.png","cartype_image_size":"6087","cartype_big_image":"webstatic\/img\/fleet-image\/prime-suv.png","car_longdescription":"The all too familiar Ambulance, minus the hassle of waiting and haggling for price. A convenient way to travel everyday.","car_longdescription_arabic":"\u0633\u064a\u0627\u0631\u0629 \u0625\u0633\u0639\u0627\u0641 \u0645\u0623\u0644\u0648\u0641\u0629 \u062c\u062f\u0627\u060c \u0646\u0627\u0642\u0635 \u0627\u0644\u0627\u0632\u0639\u0627\u062c \u0645\u0646 \u0627\u0644\u0627\u0646\u062a\u0638\u0627\u0631 \u0648\u0627\u0644\u0645\u0633\u0627\u0648\u0645\u0629 \u0644\u0644\u0633\u0639\u0631. \u0648\u0647\u0646\u0627\u0643 \u0637\u0631\u064a\u0642\u0629 \u0645\u0631\u064a\u062d\u0629 \u0644\u0644\u0633\u0641\u0631 \u0643\u0644 \u064a\u0648\u0645.","car_description":"Get an Ambulance at your doorstep","car_description_arabic":"\u0627\u0644\u062d\u0635\u0648\u0644 \u0639\u0644\u0649 \u0633\u064a\u0627\u0631\u0629 \u0625\u0633\u0639\u0627\u0641 \u0639\u0644\u0649 \u0639\u062a\u0628\u0629 \u062f\u0627\u0631\u0643\u0645","ride_mode":"1","car_admin_status":"1","city_id":"56"},{"car_type_id":"29","car_type_name":"Boda Boda","car_name_arabic":"\u0628\u0648\u062f\u0627 \u0628\u0648\u062f\u0627","car_type_name_french":"j","car_type_image":"uploads\/car\/editcar_29.png","cartype_image_size":"4901","cartype_big_image":"webstatic\/img\/fleet-image\/bike.png","car_longdescription":"The all too familiar Boda Boda, minus the hassle of waiting and haggling for price. A convenient way to travel everyday.","car_longdescription_arabic":"\u0643\u0644 \u0645\u0627 \u0647\u0648 \u0645\u0623\u0644\u0648\u0641 \u062c\u062f\u0627 \u0628\u0648\u062f\u0627 \u0628\u0648\u062f\u0627\u060c \u0646\u0627\u0642\u0635 \u0627\u0644\u0627\u0632\u0639\u0627\u062c \u0645\u0646 \u0627\u0644\u0627\u0646\u062a\u0638\u0627\u0631 \u0648\u0627\u0644\u0645\u0633\u0627\u0648\u0645\u0629 \u0644\u0644\u0633\u0639\u0631. \u0648\u0647\u0646\u0627\u0643 \u0637\u0631\u064a\u0642\u0629 \u0645\u0631\u064a\u062d\u0629 \u0644\u0644\u0633\u0641\u0631 \u0643\u0644 \u064a\u0648\u0645.","car_description":"Get an Boda Boda at your doorstep","car_description_arabic":"\u0627\u0644\u062d\u0635\u0648\u0644 \u0639\u0644\u0649 \u0628\u0648\u062f\u0627 \u0628\u0648\u062f\u0627 \u0639\u0644\u0649 \u0639\u062a\u0628\u0629 \u062f\u0627\u0631\u0643\u0645","ride_mode":"1","car_admin_status":"1","city_id":"56"}]}
city_id: 56
-------------------------
Driver App - Login driver Api: November 10, 2017, 9:04 am
Response: Array
(
    [driver_id] => 55
    [company_id] => 0
    [commission] => 4
    [driver_name] => samir
    [driver_email] => samir@apporio.com
    [driver_phone] => 9650923089
    [driver_image] => 
    [driver_password] => 123456
    [driver_token] => AkpV564hNamYUdFd
    [driver_category] => 0
    [total_payment_eraned] => 0
    [company_payment] => 0
    [driver_payment] => 
    [device_id] => 
    [flag] => 0
    [rating] => 
    [car_type_id] => 2
    [car_model_id] => 3
    [car_number] => DL7728
    [city_id] => 56
    [register_date] => Friday, Nov 10
    [license] => 
    [license_expire] => 
    [rc] => 
    [rc_expire] => 
    [insurance] => 
    [insurance_expire] => 
    [other_docs] => 
    [driver_bank_name] => 
    [driver_account_number] => 
    [total_card_payment] => 0.00
    [total_cash_payment] => 0.00
    [amount_transfer_pending] => 0.00
    [current_lat] => 
    [current_long] => 
    [current_location] => 
    [last_update] => 
    [last_update_date] => 
    [completed_rides] => 0
    [reject_rides] => 0
    [cancelled_rides] => 0
    [login_logout] => 2
    [busy] => 0
    [online_offline] => 0
    [detail_status] => 1
    [payment_transfer] => 0
    [verification_date] => 
    [verification_status] => 0
    [unique_number] => 
    [driver_signup_date] => 2017-11-10
    [driver_status_image] => http://www.apporiotaxi.com/superadminpanel/images/icons8-Error-80.png
    [driver_status_message] => your document id in under process, You will be notified very soon
    [total_document_need] => 3
    [driver_admin_status] => 1
    [verfiy_document] => 0
    [city_name] => Nakuru 
    [city_latitude] => 
    [city_longitude] => 
    [currency] => kes
    [currency_iso_code] => kes
    [currency_unicode] => 0
    [distance] => Km
    [city_name_arabic] => 
    [city_name_french] => 
    [city_admin_status] => 1
    [car_type_name] => Taxi
    [car_model_name] => Nano
)

driver_email_phone: 9650923089
driver_password: 123456
-------------------------
Driver App - Login driver Api: November 10, 2017, 9:04 am
Response: Array
(
    [driver_id] => 55
    [company_id] => 0
    [commission] => 4
    [driver_name] => samir
    [driver_email] => samir@apporio.com
    [driver_phone] => 9650923089
    [driver_image] => 
    [driver_password] => 123456
    [driver_token] => b8MrEY0vF12UFmJt
    [driver_category] => 0
    [total_payment_eraned] => 0
    [company_payment] => 0
    [driver_payment] => 
    [device_id] => 
    [flag] => 0
    [rating] => 
    [car_type_id] => 2
    [car_model_id] => 3
    [car_number] => DL7728
    [city_id] => 56
    [register_date] => Friday, Nov 10
    [license] => 
    [license_expire] => 
    [rc] => 
    [rc_expire] => 
    [insurance] => 
    [insurance_expire] => 
    [other_docs] => 
    [driver_bank_name] => 
    [driver_account_number] => 
    [total_card_payment] => 0.00
    [total_cash_payment] => 0.00
    [amount_transfer_pending] => 0.00
    [current_lat] => 
    [current_long] => 
    [current_location] => 
    [last_update] => 
    [last_update_date] => 
    [completed_rides] => 0
    [reject_rides] => 0
    [cancelled_rides] => 0
    [login_logout] => 2
    [busy] => 0
    [online_offline] => 0
    [detail_status] => 1
    [payment_transfer] => 0
    [verification_date] => 
    [verification_status] => 0
    [unique_number] => 
    [driver_signup_date] => 2017-11-10
    [driver_status_image] => http://www.apporiotaxi.com/superadminpanel/images/icons8-Error-80.png
    [driver_status_message] => your document id in under process, You will be notified very soon
    [total_document_need] => 3
    [driver_admin_status] => 1
    [verfiy_document] => 0
    [city_name] => Nakuru 
    [city_latitude] => 
    [city_longitude] => 
    [currency] => kes
    [currency_iso_code] => kes
    [currency_unicode] => 0
    [distance] => Km
    [city_name_arabic] => 
    [city_name_french] => 
    [city_admin_status] => 1
    [car_type_name] => Taxi
    [car_model_name] => Nano
)

driver_email_phone: 9650923089
driver_password: 123456
-------------------------
Driver App - Login driver Api: November 10, 2017, 9:05 am
Response: Array
(
    [driver_id] => 55
    [company_id] => 0
    [commission] => 4
    [driver_name] => samir
    [driver_email] => samir@apporio.com
    [driver_phone] => 9650923089
    [driver_image] => 
    [driver_password] => 123456
    [driver_token] => ZLUaCO9Pa5R29rNv
    [driver_category] => 0
    [total_payment_eraned] => 0
    [company_payment] => 0
    [driver_payment] => 
    [device_id] => 
    [flag] => 0
    [rating] => 
    [car_type_id] => 2
    [car_model_id] => 3
    [car_number] => DL7728
    [city_id] => 56
    [register_date] => Friday, Nov 10
    [license] => 
    [license_expire] => 
    [rc] => 
    [rc_expire] => 
    [insurance] => 
    [insurance_expire] => 
    [other_docs] => 
    [driver_bank_name] => 
    [driver_account_number] => 
    [total_card_payment] => 0.00
    [total_cash_payment] => 0.00
    [amount_transfer_pending] => 0.00
    [current_lat] => 
    [current_long] => 
    [current_location] => 
    [last_update] => 
    [last_update_date] => 
    [completed_rides] => 0
    [reject_rides] => 0
    [cancelled_rides] => 0
    [login_logout] => 2
    [busy] => 0
    [online_offline] => 0
    [detail_status] => 1
    [payment_transfer] => 0
    [verification_date] => 
    [verification_status] => 0
    [unique_number] => 
    [driver_signup_date] => 2017-11-10
    [driver_status_image] => http://www.apporiotaxi.com/superadminpanel/images/icons8-Error-80.png
    [driver_status_message] => your document id in under process, You will be notified very soon
    [total_document_need] => 3
    [driver_admin_status] => 1
    [verfiy_document] => 0
    [city_name] => Nakuru 
    [city_latitude] => 
    [city_longitude] => 
    [currency] => kes
    [currency_iso_code] => kes
    [currency_unicode] => 0
    [distance] => Km
    [city_name_arabic] => 
    [city_name_french] => 
    [city_admin_status] => 1
    [car_type_name] => Taxi
    [car_model_name] => Nano
)

driver_email_phone: 9650923089
driver_password: 123456
-------------------------
Driver App - Login driver Api: November 10, 2017, 9:05 am
Response: Array
(
    [driver_id] => 55
    [company_id] => 0
    [commission] => 4
    [driver_name] => samir
    [driver_email] => samir@apporio.com
    [driver_phone] => 9650923089
    [driver_image] => 
    [driver_password] => 123456
    [driver_token] => qX5LEhnjEdPL2NJR
    [driver_category] => 0
    [total_payment_eraned] => 0
    [company_payment] => 0
    [driver_payment] => 
    [device_id] => 
    [flag] => 0
    [rating] => 
    [car_type_id] => 2
    [car_model_id] => 3
    [car_number] => DL7728
    [city_id] => 56
    [register_date] => Friday, Nov 10
    [license] => 
    [license_expire] => 
    [rc] => 
    [rc_expire] => 
    [insurance] => 
    [insurance_expire] => 
    [other_docs] => 
    [driver_bank_name] => 
    [driver_account_number] => 
    [total_card_payment] => 0.00
    [total_cash_payment] => 0.00
    [amount_transfer_pending] => 0.00
    [current_lat] => 
    [current_long] => 
    [current_location] => 
    [last_update] => 
    [last_update_date] => 
    [completed_rides] => 0
    [reject_rides] => 0
    [cancelled_rides] => 0
    [login_logout] => 2
    [busy] => 0
    [online_offline] => 0
    [detail_status] => 1
    [payment_transfer] => 0
    [verification_date] => 
    [verification_status] => 0
    [unique_number] => 
    [driver_signup_date] => 2017-11-10
    [driver_status_image] => http://www.apporiotaxi.com/superadminpanel/images/icons8-Error-80.png
    [driver_status_message] => your document id in under process, You will be notified very soon
    [total_document_need] => 3
    [driver_admin_status] => 1
    [verfiy_document] => 0
    [city_name] => Nakuru 
    [city_latitude] => 
    [city_longitude] => 
    [currency] => kes
    [currency_iso_code] => kes
    [currency_unicode] => 0
    [distance] => Km
    [city_name_arabic] => 
    [city_name_french] => 
    [city_admin_status] => 1
    [car_type_name] => Taxi
    [car_model_name] => Nano
)

driver_email_phone: 9650923089
driver_password: 123456
-------------------------
Driver App - Login driver Api: November 10, 2017, 9:07 am
Response: Array
(
    [driver_id] => 55
    [company_id] => 0
    [commission] => 4
    [driver_name] => samir
    [driver_email] => samir@apporio.com
    [driver_phone] => 9650923089
    [driver_image] => 
    [driver_password] => 123456
    [driver_token] => pqQoaB1nIENBRyWZ
    [driver_category] => 0
    [total_payment_eraned] => 0
    [company_payment] => 0
    [driver_payment] => 
    [device_id] => 
    [flag] => 0
    [rating] => 
    [car_type_id] => 2
    [car_model_id] => 3
    [car_number] => DL7728
    [city_id] => 56
    [register_date] => Friday, Nov 10
    [license] => 
    [license_expire] => 
    [rc] => 
    [rc_expire] => 
    [insurance] => 
    [insurance_expire] => 
    [other_docs] => 
    [driver_bank_name] => 
    [driver_account_number] => 
    [total_card_payment] => 0.00
    [total_cash_payment] => 0.00
    [amount_transfer_pending] => 0.00
    [current_lat] => 
    [current_long] => 
    [current_location] => 
    [last_update] => 
    [last_update_date] => 
    [completed_rides] => 0
    [reject_rides] => 0
    [cancelled_rides] => 0
    [login_logout] => 2
    [busy] => 0
    [online_offline] => 0
    [detail_status] => 1
    [payment_transfer] => 0
    [verification_date] => 
    [verification_status] => 0
    [unique_number] => 
    [driver_signup_date] => 2017-11-10
    [driver_status_image] => http://www.apporiotaxi.com/superadminpanel/images/icons8-Error-80.png
    [driver_status_message] => your document id in under process, You will be notified very soon
    [total_document_need] => 3
    [driver_admin_status] => 1
    [verfiy_document] => 0
    [city_name] => Nakuru 
    [city_latitude] => 
    [city_longitude] => 
    [currency] => kes
    [currency_iso_code] => kes
    [currency_unicode] => 0
    [distance] => Km
    [city_name_arabic] => 
    [city_name_french] => 
    [city_admin_status] => 1
    [car_type_name] => Taxi
    [car_model_name] => Nano
)

driver_email_phone: 9650923089
driver_password: 123456
-------------------------
Driver App - Login driver Api: November 10, 2017, 9:13 am
Response: Array
(
    [driver_id] => 55
    [company_id] => 0
    [commission] => 4
    [driver_name] => samir
    [driver_email] => samir@apporio.com
    [driver_phone] => 9650923089
    [driver_image] => 
    [driver_password] => 123456
    [driver_token] => JvQKHr6Y1T4EVVm8
    [driver_category] => 0
    [total_payment_eraned] => 0
    [company_payment] => 0
    [driver_payment] => 
    [device_id] => 
    [flag] => 0
    [rating] => 
    [car_type_id] => 2
    [car_model_id] => 3
    [car_number] => DL7728
    [city_id] => 56
    [register_date] => Friday, Nov 10
    [license] => 
    [license_expire] => 
    [rc] => 
    [rc_expire] => 
    [insurance] => 
    [insurance_expire] => 
    [other_docs] => 
    [driver_bank_name] => 
    [driver_account_number] => 
    [total_card_payment] => 0.00
    [total_cash_payment] => 0.00
    [amount_transfer_pending] => 0.00
    [current_lat] => 
    [current_long] => 
    [current_location] => 
    [last_update] => 
    [last_update_date] => 
    [completed_rides] => 0
    [reject_rides] => 0
    [cancelled_rides] => 0
    [login_logout] => 2
    [busy] => 0
    [online_offline] => 0
    [detail_status] => 1
    [payment_transfer] => 0
    [verification_date] => 
    [verification_status] => 0
    [unique_number] => 
    [driver_signup_date] => 2017-11-10
    [driver_status_image] => http://www.apporiotaxi.com/superadminpanel/images/icons8-Error-80.png
    [driver_status_message] => your document id in under process, You will be notified very soon
    [total_document_need] => 3
    [driver_admin_status] => 1
    [verfiy_document] => 0
    [city_name] => Nakuru 
    [city_latitude] => 
    [city_longitude] => 
    [currency] => kes
    [currency_iso_code] => kes
    [currency_unicode] => 0
    [distance] => Km
    [city_name_arabic] => 
    [city_name_french] => 
    [city_admin_status] => 1
    [car_type_name] => Taxi
    [car_model_name] => Nano
)

driver_email_phone: 9650923089
driver_password: 123456
-------------------------
Driver App - Login driver Api: November 10, 2017, 9:14 am
Response: Array
(
    [driver_id] => 55
    [company_id] => 0
    [commission] => 4
    [driver_name] => samir
    [driver_email] => samir@apporio.com
    [driver_phone] => 9650923089
    [driver_image] => 
    [driver_password] => 123456
    [driver_token] => 68bLeFA4HYsbgbdk
    [driver_category] => 0
    [total_payment_eraned] => 0
    [company_payment] => 0
    [driver_payment] => 
    [device_id] => 
    [flag] => 0
    [rating] => 
    [car_type_id] => 2
    [car_model_id] => 3
    [car_number] => DL7728
    [city_id] => 56
    [register_date] => Friday, Nov 10
    [license] => 
    [license_expire] => 
    [rc] => 
    [rc_expire] => 
    [insurance] => 
    [insurance_expire] => 
    [other_docs] => 
    [driver_bank_name] => 
    [driver_account_number] => 
    [total_card_payment] => 0.00
    [total_cash_payment] => 0.00
    [amount_transfer_pending] => 0.00
    [current_lat] => 
    [current_long] => 
    [current_location] => 
    [last_update] => 
    [last_update_date] => 
    [completed_rides] => 0
    [reject_rides] => 0
    [cancelled_rides] => 0
    [login_logout] => 2
    [busy] => 0
    [online_offline] => 0
    [detail_status] => 1
    [payment_transfer] => 0
    [verification_date] => 
    [verification_status] => 0
    [unique_number] => 
    [driver_signup_date] => 2017-11-10
    [driver_status_image] => http://www.apporiotaxi.com/superadminpanel/images/icons8-Error-80.png
    [driver_status_message] => your document id in under process, You will be notified very soon
    [total_document_need] => 3
    [driver_admin_status] => 1
    [verfiy_document] => 0
    [city_name] => Nakuru 
    [city_latitude] => 
    [city_longitude] => 
    [currency] => kes
    [currency_iso_code] => kes
    [currency_unicode] => 0
    [distance] => Km
    [city_name_arabic] => 
    [city_name_french] => 
    [city_admin_status] => 1
    [car_type_name] => Taxi
    [car_model_name] => Nano
)

driver_email_phone: 9650923089
driver_password: 123456
-------------------------
car by city api -: November 10, 2017, 9:15 am
Response: {"result":1,"msg":[{"car_type_id":"2","car_type_name":"Taxi","car_name_arabic":"\u0633\u064a\u0627\u0631\u0629 \u0627\u062c\u0631\u0647","car_type_name_french":"","car_type_image":"uploads\/car\/car_27.png","cartype_image_size":"4968","cartype_big_image":"webstatic\/img\/fleet-image\/kaali-peeli.png","car_longdescription":"The all too familiar Taxi, minus the hassle of waiting and haggling for price. A convenient way to travel everyday.","car_longdescription_arabic":"\u062a\u0627\u0643\u0633\u064a \u0645\u0623\u0644\u0648\u0641\u0629 \u062c\u062f\u0627\u060c \u0646\u0627\u0642\u0635 \u0627\u0644\u0627\u0632\u0639\u0627\u062c \u0645\u0646 \u0627\u0644\u0627\u0646\u062a\u0638\u0627\u0631 \u0648\u0627\u0644\u0645\u0633\u0627\u0648\u0645\u0629 \u0644\u0644\u0633\u0639\u0631. \u0648\u0647\u0646\u0627\u0643 \u0637\u0631\u064a\u0642\u0629 \u0645\u0631\u064a\u062d\u0629 \u0644\u0644\u0633\u0641\u0631 \u0643\u0644 \u064a\u0648\u0645.","car_description":"Get an Taxi at your doorstep","car_description_arabic":"\u0627\u0644\u062d\u0635\u0648\u0644 \u0639\u0644\u0649 \u0633\u064a\u0627\u0631\u0629 \u0623\u062c\u0631\u0629 \u0639\u0644\u0649 \u0639\u062a\u0628\u0629 \u062f\u0627\u0631\u0643\u0645","ride_mode":"1","car_admin_status":"1","city_id":"56"},{"car_type_id":"28","car_type_name":"Ambulance","car_name_arabic":"\u0633\u064a\u0627\u0631\u0647 \u0627\u0633\u0639\u0627\u0641","car_type_name_french":"","car_type_image":"uploads\/car\/car_28.png","cartype_image_size":"6087","cartype_big_image":"webstatic\/img\/fleet-image\/prime-suv.png","car_longdescription":"The all too familiar Ambulance, minus the hassle of waiting and haggling for price. A convenient way to travel everyday.","car_longdescription_arabic":"\u0633\u064a\u0627\u0631\u0629 \u0625\u0633\u0639\u0627\u0641 \u0645\u0623\u0644\u0648\u0641\u0629 \u062c\u062f\u0627\u060c \u0646\u0627\u0642\u0635 \u0627\u0644\u0627\u0632\u0639\u0627\u062c \u0645\u0646 \u0627\u0644\u0627\u0646\u062a\u0638\u0627\u0631 \u0648\u0627\u0644\u0645\u0633\u0627\u0648\u0645\u0629 \u0644\u0644\u0633\u0639\u0631. \u0648\u0647\u0646\u0627\u0643 \u0637\u0631\u064a\u0642\u0629 \u0645\u0631\u064a\u062d\u0629 \u0644\u0644\u0633\u0641\u0631 \u0643\u0644 \u064a\u0648\u0645.","car_description":"Get an Ambulance at your doorstep","car_description_arabic":"\u0627\u0644\u062d\u0635\u0648\u0644 \u0639\u0644\u0649 \u0633\u064a\u0627\u0631\u0629 \u0625\u0633\u0639\u0627\u0641 \u0639\u0644\u0649 \u0639\u062a\u0628\u0629 \u062f\u0627\u0631\u0643\u0645","ride_mode":"1","car_admin_status":"1","city_id":"56"},{"car_type_id":"29","car_type_name":"Boda Boda","car_name_arabic":"\u0628\u0648\u062f\u0627 \u0628\u0648\u062f\u0627","car_type_name_french":"j","car_type_image":"uploads\/car\/editcar_29.png","cartype_image_size":"4901","cartype_big_image":"webstatic\/img\/fleet-image\/bike.png","car_longdescription":"The all too familiar Boda Boda, minus the hassle of waiting and haggling for price. A convenient way to travel everyday.","car_longdescription_arabic":"\u0643\u0644 \u0645\u0627 \u0647\u0648 \u0645\u0623\u0644\u0648\u0641 \u062c\u062f\u0627 \u0628\u0648\u062f\u0627 \u0628\u0648\u062f\u0627\u060c \u0646\u0627\u0642\u0635 \u0627\u0644\u0627\u0632\u0639\u0627\u062c \u0645\u0646 \u0627\u0644\u0627\u0646\u062a\u0638\u0627\u0631 \u0648\u0627\u0644\u0645\u0633\u0627\u0648\u0645\u0629 \u0644\u0644\u0633\u0639\u0631. \u0648\u0647\u0646\u0627\u0643 \u0637\u0631\u064a\u0642\u0629 \u0645\u0631\u064a\u062d\u0629 \u0644\u0644\u0633\u0641\u0631 \u0643\u0644 \u064a\u0648\u0645.","car_description":"Get an Boda Boda at your doorstep","car_description_arabic":"\u0627\u0644\u062d\u0635\u0648\u0644 \u0639\u0644\u0649 \u0628\u0648\u062f\u0627 \u0628\u0648\u062f\u0627 \u0639\u0644\u0649 \u0639\u062a\u0628\u0629 \u062f\u0627\u0631\u0643\u0645","ride_mode":"1","car_admin_status":"1","city_id":"56"}]}
city_id: 56
-------------------------
Driver App - Login driver Api: November 10, 2017, 9:16 am
Response: Array
(
    [driver_id] => 56
    [company_id] => 0
    [commission] => 10
    [driver_name] => samir
    [driver_email] => samirgoel3@gmail.com
    [driver_phone] => 9350644473
    [driver_image] => 
    [driver_password] => 123456
    [driver_token] => Ef88umd6uNqRvGDG
    [driver_category] => 0
    [total_payment_eraned] => 0
    [company_payment] => 0
    [driver_payment] => 
    [device_id] => 
    [flag] => 0
    [rating] => 
    [car_type_id] => 28
    [car_model_id] => 19
    [car_number] => dfff
    [city_id] => 56
    [register_date] => Friday, Nov 10
    [license] => 
    [license_expire] => 
    [rc] => 
    [rc_expire] => 
    [insurance] => 
    [insurance_expire] => 
    [other_docs] => 
    [driver_bank_name] => 
    [driver_account_number] => 
    [total_card_payment] => 0.00
    [total_cash_payment] => 0.00
    [amount_transfer_pending] => 0.00
    [current_lat] => 
    [current_long] => 
    [current_location] => 
    [last_update] => 
    [last_update_date] => 
    [completed_rides] => 0
    [reject_rides] => 0
    [cancelled_rides] => 0
    [login_logout] => 1
    [busy] => 0
    [online_offline] => 0
    [detail_status] => 2
    [payment_transfer] => 0
    [verification_date] => 
    [verification_status] => 0
    [unique_number] => 
    [driver_signup_date] => 2017-11-10
    [driver_status_image] => http://www.apporiotaxi.com/superadminpanel/images/icons8-Error-80.png
    [driver_status_message] => your document id in under process, You will be notified very soon
    [total_document_need] => 3
    [driver_admin_status] => 1
    [verfiy_document] => 0
    [city_name] => Nakuru 
    [city_latitude] => 
    [city_longitude] => 
    [currency] => kes
    [currency_iso_code] => kes
    [currency_unicode] => 0
    [distance] => Km
    [city_name_arabic] => 
    [city_name_french] => 
    [city_admin_status] => 1
    [car_type_name] => Ambulance
    [car_model_name] => Marc fully loaded with medical care equipemnt
)

driver_email_phone: 9350644473
driver_password: 123456
-------------------------
car by city api -: November 10, 2017, 9:20 am
Response: {"result":1,"msg":[{"car_type_id":"28","car_type_name":"Ambulance","car_name_arabic":"\u0633\u064a\u0627\u0631\u0647 \u0627\u0633\u0639\u0627\u0641","car_type_name_french":"","car_type_image":"uploads\/car\/car_28.png","cartype_image_size":"6087","cartype_big_image":"webstatic\/img\/fleet-image\/prime-suv.png","car_longdescription":"The all too familiar Ambulance, minus the hassle of waiting and haggling for price. A convenient way to travel everyday.","car_longdescription_arabic":"\u0633\u064a\u0627\u0631\u0629 \u0625\u0633\u0639\u0627\u0641 \u0645\u0623\u0644\u0648\u0641\u0629 \u062c\u062f\u0627\u060c \u0646\u0627\u0642\u0635 \u0627\u0644\u0627\u0632\u0639\u0627\u062c \u0645\u0646 \u0627\u0644\u0627\u0646\u062a\u0638\u0627\u0631 \u0648\u0627\u0644\u0645\u0633\u0627\u0648\u0645\u0629 \u0644\u0644\u0633\u0639\u0631. \u0648\u0647\u0646\u0627\u0643 \u0637\u0631\u064a\u0642\u0629 \u0645\u0631\u064a\u062d\u0629 \u0644\u0644\u0633\u0641\u0631 \u0643\u0644 \u064a\u0648\u0645.","car_description":"Get an Ambulance at your doorstep","car_description_arabic":"\u0627\u0644\u062d\u0635\u0648\u0644 \u0639\u0644\u0649 \u0633\u064a\u0627\u0631\u0629 \u0625\u0633\u0639\u0627\u0641 \u0639\u0644\u0649 \u0639\u062a\u0628\u0629 \u062f\u0627\u0631\u0643\u0645","ride_mode":"1","car_admin_status":"1","city_id":"121"},{"car_type_id":"29","car_type_name":"Boda Boda","car_name_arabic":"\u0628\u0648\u062f\u0627 \u0628\u0648\u062f\u0627","car_type_name_french":"j","car_type_image":"uploads\/car\/editcar_29.png","cartype_image_size":"4901","cartype_big_image":"webstatic\/img\/fleet-image\/bike.png","car_longdescription":"The all too familiar Boda Boda, minus the hassle of waiting and haggling for price. A convenient way to travel everyday.","car_longdescription_arabic":"\u0643\u0644 \u0645\u0627 \u0647\u0648 \u0645\u0623\u0644\u0648\u0641 \u062c\u062f\u0627 \u0628\u0648\u062f\u0627 \u0628\u0648\u062f\u0627\u060c \u0646\u0627\u0642\u0635 \u0627\u0644\u0627\u0632\u0639\u0627\u062c \u0645\u0646 \u0627\u0644\u0627\u0646\u062a\u0638\u0627\u0631 \u0648\u0627\u0644\u0645\u0633\u0627\u0648\u0645\u0629 \u0644\u0644\u0633\u0639\u0631. \u0648\u0647\u0646\u0627\u0643 \u0637\u0631\u064a\u0642\u0629 \u0645\u0631\u064a\u062d\u0629 \u0644\u0644\u0633\u0641\u0631 \u0643\u0644 \u064a\u0648\u0645.","car_description":"Get an Boda Boda at your doorstep","car_description_arabic":"\u0627\u0644\u062d\u0635\u0648\u0644 \u0639\u0644\u0649 \u0628\u0648\u062f\u0627 \u0628\u0648\u062f\u0627 \u0639\u0644\u0649 \u0639\u062a\u0628\u0629 \u062f\u0627\u0631\u0643\u0645","ride_mode":"1","car_admin_status":"1","city_id":"121"},{"car_type_id":"30","car_type_name":"Towing","car_name_arabic":"\u0642\u0637\u0631","car_type_name_french":"","car_type_image":"uploads\/car\/car_30.png","cartype_image_size":"7077","cartype_big_image":"webstatic\/img\/fleet-image\/towing_truck.png","car_longdescription":"The all too familiar Towing, minus the hassle of waiting and haggling for price. A convenient way to travel everyday.","car_longdescription_arabic":"\u0643\u0644 \u0645\u0627 \u0647\u0648 \u0645\u0623\u0644\u0648\u0641 \u062a\u0648\u0646\u064a\u0646\u063a\u060c \u0646\u0627\u0642\u0635 \u0627\u0644\u0627\u0632\u0639\u0627\u062c \u0645\u0646 \u0627\u0644\u0627\u0646\u062a\u0638\u0627\u0631 \u0648\u0627\u0644\u0645\u0633\u0627\u0648\u0645\u0629 \u0644\u0644\u0633\u0639\u0631. \u0648\u0647\u0646\u0627\u0643 \u0637\u0631\u064a\u0642\u0629 \u0645\u0631\u064a\u062d\u0629 \u0644\u0644\u0633\u0641\u0631 \u0643\u0644 \u064a\u0648\u0645.","car_description":"Get an Towing at your doorstep","car_description_arabic":"\u0627\u0644\u062d\u0635\u0648\u0644 \u0639\u0644\u0649 \u0633\u062d\u0628 \u0639\u0644\u0649 \u0639\u062a\u0628\u0629 \u062f\u0627\u0631\u0643\u0645","ride_mode":"1","car_admin_status":"1","city_id":"121"},{"car_type_id":"31","car_type_name":"hire","car_name_arabic":"\u062a\u0648\u0638\u064a\u0641","car_type_name_french":"backhoe","car_type_image":"uploads\/car\/editcar_31.png","cartype_image_size":"1203","cartype_big_image":"webstatic\/img\/fleet-image\/shuttle.png","car_longdescription":"The all too familiar hire, minus the hassle of waiting and haggling for price. A convenient way to travel everyday.","car_longdescription_arabic":"\u0627\u0633\u062a\u0626\u062c\u0627\u0631 \u0645\u0623\u0644\u0648\u0641\u0629 \u062c\u062f\u0627\u060c \u0646\u0627\u0642\u0635 \u0627\u0644\u0627\u0632\u0639\u0627\u062c \u0645\u0646 \u0627\u0644\u0627\u0646\u062a\u0638\u0627\u0631 \u0648\u0627\u0644\u0645\u0633\u0627\u0648\u0645\u0629 \u0644\u0644\u0633\u0639\u0631. \u0648\u0647\u0646\u0627\u0643 \u0637\u0631\u064a\u0642\u0629 \u0645\u0631\u064a\u062d\u0629 \u0644\u0644\u0633\u0641\u0631 \u0643\u0644 \u064a\u0648\u0645.","car_description":"Get an hire at your doorstep","car_description_arabic":"\u0627\u0644\u062d\u0635\u0648\u0644 \u0639\u0644\u0649 \u0627\u0633\u062a\u0626\u062c\u0627\u0631 \u0639\u0644\u0649 \u0639\u062a\u0628\u0629 \u062f\u0627\u0631\u0643\u0645","ride_mode":"1","car_admin_status":"1","city_id":"121"},{"car_type_id":"32","car_type_name":"Hotel transfer","car_name_arabic":"\u0646\u0642\u0644 \u0627\u0644\u0641\u0646\u062f\u0642","car_type_name_french":"","car_type_image":"uploads\/car\/car_32.png","cartype_image_size":"5927","cartype_big_image":"webstatic\/img\/fleet-image\/lux.png","car_longdescription":"The all too familiar Hotel transfer, minus the hassle of waiting and haggling for price. A convenient way to travel everyday.","car_longdescription_arabic":"\u0646\u0642\u0644 \u0641\u0646\u062f\u0642 \u0645\u0623\u0644\u0648\u0641\u0629 \u062c\u062f\u0627\u060c \u0646\u0627\u0642\u0635 \u0627\u0644\u0627\u0632\u0639\u0627\u062c \u0645\u0646 \u0627\u0644\u0627\u0646\u062a\u0638\u0627\u0631 \u0648\u0627\u0644\u0645\u0633\u0627\u0648\u0645\u0629 \u0644\u0644\u0633\u0639\u0631. \u0648\u0647\u0646\u0627\u0643 \u0637\u0631\u064a\u0642\u0629 \u0645\u0631\u064a\u062d\u0629 \u0644\u0644\u0633\u0641\u0631 \u0643\u0644 \u064a\u0648\u0645.","car_description":"Get an Hotel transfer at your doorstep","car_description_arabic":"\u0627\u0644\u062d\u0635\u0648\u0644 \u0639\u0644\u0649 \u0646\u0642\u0644 \u0627\u0644\u0641\u0646\u062f\u0642 \u0639\u0644\u0649 \u0639\u062a\u0628\u0629 \u062f\u0627\u0631\u0643\u0645","ride_mode":"1","car_admin_status":"1","city_id":"121"},{"car_type_id":"33","car_type_name":"Corporate taxi","car_name_arabic":"\u062a\u0648\u0638\u064a\u0641","car_type_name_french":"","car_type_image":"uploads\/car\/editcar_33.png","cartype_image_size":"1768","cartype_big_image":"webstatic\/img\/fleet-image\/truck.png","car_longdescription":"The all too familiar hire, minus the hassle of waiting and haggling for price. A convenient way to travel everyday.","car_longdescription_arabic":"\u0627\u0633\u062a\u0626\u062c\u0627\u0631 \u0645\u0623\u0644\u0648\u0641\u0629 \u062c\u062f\u0627\u060c \u0646\u0627\u0642\u0635 \u0627\u0644\u0627\u0632\u0639\u0627\u062c \u0645\u0646 \u0627\u0644\u0627\u0646\u062a\u0638\u0627\u0631 \u0648\u0627\u0644\u0645\u0633\u0627\u0648\u0645\u0629 \u0644\u0644\u0633\u0639\u0631. \u0648\u0647\u0646\u0627\u0643 \u0637\u0631\u064a\u0642\u0629 \u0645\u0631\u064a\u062d\u0629 \u0644\u0644\u0633\u0641\u0631 \u0643\u0644 \u064a\u0648\u0645.","car_description":"Get an hire at your doorstep","car_description_arabic":"\u0627\u0644\u062d\u0635\u0648\u0644 \u0639\u0644\u0649 \u0627\u0633\u062a\u0626\u062c\u0627\u0631 \u0639\u0644\u0649 \u0639\u062a\u0628\u0629 \u062f\u0627\u0631\u0643\u0645","ride_mode":"1","car_admin_status":"1","city_id":"121"},{"car_type_id":"34","car_type_name":"school pick and drop","car_name_arabic":"\u0627\u062e\u062a\u064a\u0627\u0631 \u0627\u0644\u0645\u062f\u0631\u0633\u0629 \u0648\u0625\u0633\u0642\u0627\u0637","car_type_name_french":"","car_type_image":"uploads\/car\/editcar_34.png","cartype_image_size":"6090","cartype_big_image":"webstatic\/img\/fleet-image\/bus.png","car_longdescription":"The all too familiar school pick and drop, minus the hassle of waiting and haggling for price. A convenient way to travel everyday.","car_longdescription_arabic":"\u0627\u0644\u0645\u062f\u0631\u0633\u0629 \u0627\u062e\u062a\u064a\u0627\u0631 \u0645\u0623\u0644\u0648\u0641\u0629 \u062c\u062f\u0627 \u0648\u0625\u0633\u0642\u0627\u0637\u060c \u0646\u0627\u0642\u0635 \u0627\u0644\u0627\u0632\u0639\u0627\u062c \u0645\u0646 \u0627\u0644\u0627\u0646\u062a\u0638\u0627\u0631 \u0648\u0627\u0644\u0645\u0633\u0627\u0648\u0645\u0629 \u0644\u0644\u0633\u0639\u0631. \u0648\u0647\u0646\u0627\u0643 \u0637\u0631\u064a\u0642\u0629 \u0645\u0631\u064a\u062d\u0629 \u0644\u0644\u0633\u0641\u0631 \u0643\u0644 \u064a\u0648\u0645.","car_description":"Get an school pick and drop at your doorstep","car_description_arabic":"\u0627\u0644\u062d\u0635\u0648\u0644 \u0639\u0644\u0649 \u0627\u062e\u062a\u064a\u0627\u0631 \u0627\u0644\u0645\u062f\u0631\u0633\u0629 \u0648\u0625\u0633\u0642\u0627\u0637 \u0639\u0644\u0649 \u0639\u062a\u0628\u0629 \u062f\u0627\u0631\u0643\u0645","ride_mode":"1","car_admin_status":"1","city_id":"121"}]}
city_id: 121
-------------------------
car by city api -: November 10, 2017, 9:25 am
Response: {"result":1,"msg":[{"car_type_id":"2","car_type_name":"Taxi","car_name_arabic":"\u0633\u064a\u0627\u0631\u0629 \u0627\u062c\u0631\u0647","car_type_name_french":"","car_type_image":"uploads\/car\/car_27.png","cartype_image_size":"4968","cartype_big_image":"webstatic\/img\/fleet-image\/kaali-peeli.png","car_longdescription":"The all too familiar Taxi, minus the hassle of waiting and haggling for price. A convenient way to travel everyday.","car_longdescription_arabic":"\u062a\u0627\u0643\u0633\u064a \u0645\u0623\u0644\u0648\u0641\u0629 \u062c\u062f\u0627\u060c \u0646\u0627\u0642\u0635 \u0627\u0644\u0627\u0632\u0639\u0627\u062c \u0645\u0646 \u0627\u0644\u0627\u0646\u062a\u0638\u0627\u0631 \u0648\u0627\u0644\u0645\u0633\u0627\u0648\u0645\u0629 \u0644\u0644\u0633\u0639\u0631. \u0648\u0647\u0646\u0627\u0643 \u0637\u0631\u064a\u0642\u0629 \u0645\u0631\u064a\u062d\u0629 \u0644\u0644\u0633\u0641\u0631 \u0643\u0644 \u064a\u0648\u0645.","car_description":"Get an Taxi at your doorstep","car_description_arabic":"\u0627\u0644\u062d\u0635\u0648\u0644 \u0639\u0644\u0649 \u0633\u064a\u0627\u0631\u0629 \u0623\u062c\u0631\u0629 \u0639\u0644\u0649 \u0639\u062a\u0628\u0629 \u062f\u0627\u0631\u0643\u0645","ride_mode":"1","car_admin_status":"1","city_id":"56"},{"car_type_id":"28","car_type_name":"Ambulance","car_name_arabic":"\u0633\u064a\u0627\u0631\u0647 \u0627\u0633\u0639\u0627\u0641","car_type_name_french":"","car_type_image":"uploads\/car\/car_28.png","cartype_image_size":"6087","cartype_big_image":"webstatic\/img\/fleet-image\/prime-suv.png","car_longdescription":"The all too familiar Ambulance, minus the hassle of waiting and haggling for price. A convenient way to travel everyday.","car_longdescription_arabic":"\u0633\u064a\u0627\u0631\u0629 \u0625\u0633\u0639\u0627\u0641 \u0645\u0623\u0644\u0648\u0641\u0629 \u062c\u062f\u0627\u060c \u0646\u0627\u0642\u0635 \u0627\u0644\u0627\u0632\u0639\u0627\u062c \u0645\u0646 \u0627\u0644\u0627\u0646\u062a\u0638\u0627\u0631 \u0648\u0627\u0644\u0645\u0633\u0627\u0648\u0645\u0629 \u0644\u0644\u0633\u0639\u0631. \u0648\u0647\u0646\u0627\u0643 \u0637\u0631\u064a\u0642\u0629 \u0645\u0631\u064a\u062d\u0629 \u0644\u0644\u0633\u0641\u0631 \u0643\u0644 \u064a\u0648\u0645.","car_description":"Get an Ambulance at your doorstep","car_description_arabic":"\u0627\u0644\u062d\u0635\u0648\u0644 \u0639\u0644\u0649 \u0633\u064a\u0627\u0631\u0629 \u0625\u0633\u0639\u0627\u0641 \u0639\u0644\u0649 \u0639\u062a\u0628\u0629 \u062f\u0627\u0631\u0643\u0645","ride_mode":"1","car_admin_status":"1","city_id":"56"},{"car_type_id":"29","car_type_name":"Boda Boda","car_name_arabic":"\u0628\u0648\u062f\u0627 \u0628\u0648\u062f\u0627","car_type_name_french":"j","car_type_image":"uploads\/car\/editcar_29.png","cartype_image_size":"4901","cartype_big_image":"webstatic\/img\/fleet-image\/bike.png","car_longdescription":"The all too familiar Boda Boda, minus the hassle of waiting and haggling for price. A convenient way to travel everyday.","car_longdescription_arabic":"\u0643\u0644 \u0645\u0627 \u0647\u0648 \u0645\u0623\u0644\u0648\u0641 \u062c\u062f\u0627 \u0628\u0648\u062f\u0627 \u0628\u0648\u062f\u0627\u060c \u0646\u0627\u0642\u0635 \u0627\u0644\u0627\u0632\u0639\u0627\u062c \u0645\u0646 \u0627\u0644\u0627\u0646\u062a\u0638\u0627\u0631 \u0648\u0627\u0644\u0645\u0633\u0627\u0648\u0645\u0629 \u0644\u0644\u0633\u0639\u0631. \u0648\u0647\u0646\u0627\u0643 \u0637\u0631\u064a\u0642\u0629 \u0645\u0631\u064a\u062d\u0629 \u0644\u0644\u0633\u0641\u0631 \u0643\u0644 \u064a\u0648\u0645.","car_description":"Get an Boda Boda at your doorstep","car_description_arabic":"\u0627\u0644\u062d\u0635\u0648\u0644 \u0639\u0644\u0649 \u0628\u0648\u062f\u0627 \u0628\u0648\u062f\u0627 \u0639\u0644\u0649 \u0639\u062a\u0628\u0629 \u062f\u0627\u0631\u0643\u0645","ride_mode":"1","car_admin_status":"1","city_id":"56"}]}
city_id: 56
-------------------------
Driver App - Login driver Api: November 10, 2017, 9:26 am
Response: Array
(
    [driver_id] => 57
    [company_id] => 0
    [commission] => 10
    [driver_name] => goyals
    [driver_email] => goyal@g.com
    [driver_phone] => 123456780
    [driver_image] => 
    [driver_password] => 123456
    [driver_token] => 4rxim0x6XVNiHmWW
    [driver_category] => 0
    [total_payment_eraned] => 0
    [company_payment] => 0
    [driver_payment] => 
    [device_id] => 
    [flag] => 0
    [rating] => 
    [car_type_id] => 28
    [car_model_id] => 19
    [car_number] => gxgx
    [city_id] => 56
    [register_date] => Friday, Nov 10
    [license] => 
    [license_expire] => 
    [rc] => 
    [rc_expire] => 
    [insurance] => 
    [insurance_expire] => 
    [other_docs] => 
    [driver_bank_name] => 
    [driver_account_number] => 
    [total_card_payment] => 0.00
    [total_cash_payment] => 0.00
    [amount_transfer_pending] => 0.00
    [current_lat] => 
    [current_long] => 
    [current_location] => 
    [last_update] => 
    [last_update_date] => 
    [completed_rides] => 0
    [reject_rides] => 0
    [cancelled_rides] => 0
    [login_logout] => 2
    [busy] => 0
    [online_offline] => 0
    [detail_status] => 3
    [payment_transfer] => 0
    [verification_date] => 
    [verification_status] => 0
    [unique_number] => 
    [driver_signup_date] => 2017-11-10
    [driver_status_image] => http://www.apporiotaxi.com/superadminpanel/images/icons8-Error-80.png
    [driver_status_message] => your document id in under process, You will be notified very soon
    [total_document_need] => 3
    [driver_admin_status] => 1
    [verfiy_document] => 0
    [city_name] => Nakuru 
    [city_latitude] => 
    [city_longitude] => 
    [currency] => kes
    [currency_iso_code] => kes
    [currency_unicode] => 0
    [distance] => Km
    [city_name_arabic] => 
    [city_name_french] => 
    [city_admin_status] => 1
    [car_type_name] => Ambulance
    [car_model_name] => Marc fully loaded with medical care equipemnt
)

driver_email_phone: 123456780
driver_password: 123456
-------------------------
Driver App - Login driver Api: November 10, 2017, 9:28 am
Response: Array
(
    [driver_id] => 57
    [company_id] => 0
    [commission] => 10
    [driver_name] => goyals
    [driver_email] => goyal@g.com
    [driver_phone] => 123456780
    [driver_image] => 
    [driver_password] => 123456
    [driver_token] => ylnndupCbfr4t7vM
    [driver_category] => 0
    [total_payment_eraned] => 0
    [company_payment] => 0
    [driver_payment] => 
    [device_id] => 
    [flag] => 0
    [rating] => 
    [car_type_id] => 28
    [car_model_id] => 19
    [car_number] => gxgx
    [city_id] => 56
    [register_date] => Friday, Nov 10
    [license] => 
    [license_expire] => 
    [rc] => 
    [rc_expire] => 
    [insurance] => 
    [insurance_expire] => 
    [other_docs] => 
    [driver_bank_name] => 
    [driver_account_number] => 
    [total_card_payment] => 0.00
    [total_cash_payment] => 0.00
    [amount_transfer_pending] => 0.00
    [current_lat] => 
    [current_long] => 
    [current_location] => 
    [last_update] => 
    [last_update_date] => 
    [completed_rides] => 0
    [reject_rides] => 0
    [cancelled_rides] => 0
    [login_logout] => 2
    [busy] => 0
    [online_offline] => 0
    [detail_status] => 3
    [payment_transfer] => 0
    [verification_date] => 
    [verification_status] => 0
    [unique_number] => 
    [driver_signup_date] => 2017-11-10
    [driver_status_image] => http://www.apporiotaxi.com/superadminpanel/images/icons8-Error-80.png
    [driver_status_message] => your document id in under process, You will be notified very soon
    [total_document_need] => 3
    [driver_admin_status] => 1
    [verfiy_document] => 3
    [city_name] => Nakuru 
    [city_latitude] => 
    [city_longitude] => 
    [currency] => kes
    [currency_iso_code] => kes
    [currency_unicode] => 0
    [distance] => Km
    [city_name_arabic] => 
    [city_name_french] => 
    [city_admin_status] => 1
    [car_type_name] => Ambulance
    [car_model_name] => Marc fully loaded with medical care equipemnt
)

driver_email_phone: 123456780
driver_password: 123456
-------------------------
Driver App - Login driver Api: November 10, 2017, 9:28 am
Response: Array
(
    [driver_id] => 57
    [company_id] => 0
    [commission] => 10
    [driver_name] => goyals
    [driver_email] => goyal@g.com
    [driver_phone] => 123456780
    [driver_image] => 
    [driver_password] => 123456
    [driver_token] => fDyCXThcRn7lWyDr
    [driver_category] => 0
    [total_payment_eraned] => 0
    [company_payment] => 0
    [driver_payment] => 
    [device_id] => 
    [flag] => 0
    [rating] => 
    [car_type_id] => 28
    [car_model_id] => 19
    [car_number] => gxgx
    [city_id] => 56
    [register_date] => Friday, Nov 10
    [license] => 
    [license_expire] => 
    [rc] => 
    [rc_expire] => 
    [insurance] => 
    [insurance_expire] => 
    [other_docs] => 
    [driver_bank_name] => 
    [driver_account_number] => 
    [total_card_payment] => 0.00
    [total_cash_payment] => 0.00
    [amount_transfer_pending] => 0.00
    [current_lat] => 
    [current_long] => 
    [current_location] => 
    [last_update] => 
    [last_update_date] => 
    [completed_rides] => 0
    [reject_rides] => 0
    [cancelled_rides] => 0
    [login_logout] => 1
    [busy] => 0
    [online_offline] => 0
    [detail_status] => 2
    [payment_transfer] => 0
    [verification_date] => 2017-11-10
    [verification_status] => 1
    [unique_number] => 
    [driver_signup_date] => 2017-11-10
    [driver_status_image] => http://www.apporiotaxi.com/superadminpanel/images/icons8-Error-80.png
    [driver_status_message] => Your Are Reject By Admin
    [total_document_need] => 3
    [driver_admin_status] => 1
    [verfiy_document] => 3
    [city_name] => Nakuru 
    [city_latitude] => 
    [city_longitude] => 
    [currency] => kes
    [currency_iso_code] => kes
    [currency_unicode] => 0
    [distance] => Km
    [city_name_arabic] => 
    [city_name_french] => 
    [city_admin_status] => 1
    [car_type_name] => Ambulance
    [car_model_name] => Marc fully loaded with medical care equipemnt
)

driver_email_phone: 123456780
driver_password: 123456
-------------------------
